"time","mean","stdev","min","max","q1","q3","median","sDE2","sDE1","sBE","sNO","sNL","sBY","sSI","sBG","sSK","sFI","sSE","sDK","sIS","sUA","sIT","sMT","sUK","sMK","sIE","sME","sMD","sIL","sES","sCH","sGR","sPT","sEE","sCY","sCZ","sFR1","sFR2","sAT","sHR","sHU","sLT","sLU","sLV","sRO","sRS","sTR","sPL"
0.1,0.00963414634146342,0.00966766321693847,0.00963414634146342,0.0525,0.0025,0.0125,0.0075,0.0525,0.0,0.0025,0.0,0.0025,0.0,0.0075,0.005,0.01,0.0025,0.0075,0.0225,0.0025,0.0025,0.0175,0.01,0.0175,0.0025,0.0075,0.005,0.0025,0.0075,0.0125,0.0175,0.0,0.01,0.0075,0.0175,0.0125,0.005,0.0075,0.01,0.0075,0.03,0.01,0.0075,0.0025,0.005,0.0075,0.025,0.0125
0.2,0.025853658536585368,0.024542209509144042,0.025853658536585368,0.135,0.0125,0.025,0.0175,0.135,0.005,0.0075,0.015,0.025,0.005,0.015,0.02,0.0225,0.0075,0.025,0.0675,0.015,0.01,0.0575,0.0175,0.03,0.0075,0.0125,0.015,0.0075,0.0125,0.025,0.055,0.005,0.02,0.015,0.02,0.0175,0.015,0.025,0.04,0.0225,0.0775,0.0225,0.0175,0.01,0.02,0.0125,0.06,0.045
0.3,0.03884146341463414,0.03569901942774228,0.03884146341463414,0.1975,0.0175,0.0375,0.0275,0.1975,0.01,0.0125,0.02,0.0375,0.0125,0.025,0.0325,0.04,0.015,0.035,0.095,0.0325,0.0175,0.0875,0.02,0.05,0.015,0.0175,0.0175,0.01,0.0175,0.035,0.085,0.015,0.0225,0.015,0.0275,0.03,0.0325,0.035,0.0675,0.0375,0.1075,0.03,0.0225,0.0125,0.0275,0.015,0.0875,0.07
0.4,0.0522560975609756,0.04799582323687763,0.0522560975609756,0.2675,0.025,0.0475,0.0375,0.2675,0.015,0.02,0.0275,0.0475,0.0175,0.0275,0.0425,0.0475,0.0225,0.0525,0.1325,0.0375,0.025,0.1175,0.03,0.0725,0.0175,0.025,0.0175,0.015,0.025,0.045,0.1075,0.0225,0.0325,0.03,0.0375,0.045,0.0425,0.04,0.085,0.045,0.145,0.0375,0.03,0.0175,0.0425,0.0225,0.1225,0.09
0.5,0.0673780487804878,0.05934847281490094,0.0673780487804878,0.33,0.03,0.0625,0.0525,0.33,0.025,0.03,0.03,0.07,0.02,0.0325,0.0525,0.0575,0.0275,0.0575,0.1775,0.06,0.0275,0.135,0.03,0.1,0.025,0.035,0.0225,0.025,0.0325,0.0625,0.1275,0.025,0.0475,0.0475,0.05,0.055,0.0575,0.06,0.1075,0.0525,0.1875,0.055,0.03,0.03,0.06,0.0375,0.155,0.1125
0.6,0.0803658536585366,0.06936902243113821,0.0803658536585366,0.3875,0.0375,0.0775,0.0625,0.3875,0.03,0.035,0.035,0.085,0.0225,0.045,0.0675,0.0625,0.035,0.0725,0.2,0.0675,0.035,0.1625,0.035,0.11,0.0375,0.0375,0.03,0.03,0.0375,0.0675,0.1525,0.0375,0.05,0.055,0.0575,0.07,0.07,0.0675,0.1275,0.0625,0.2225,0.0775,0.035,0.045,0.07,0.04,0.185,0.1425
0.7,0.0923170731707317,0.078806629356026,0.0923170731707317,0.445,0.0425,0.09,0.0725,0.445,0.04,0.0425,0.0375,0.1,0.0275,0.0475,0.09,0.075,0.0425,0.0825,0.2225,0.075,0.035,0.1725,0.0375,0.13,0.045,0.045,0.035,0.0375,0.0425,0.075,0.17,0.0425,0.0525,0.0675,0.08,0.085,0.0875,0.0725,0.14,0.0675,0.265,0.08,0.04,0.0525,0.085,0.0525,0.2125,0.15
0.8,0.10304878048780489,0.08947767161714137,0.10304878048780489,0.5075,0.0475,0.1,0.08,0.5075,0.045,0.0475,0.04,0.1125,0.03,0.05,0.095,0.085,0.045,0.09,0.245,0.0825,0.045,0.195,0.045,0.1475,0.05,0.0525,0.04,0.045,0.045,0.08,0.1975,0.0475,0.0575,0.07,0.095,0.0925,0.095,0.0825,0.15,0.07,0.295,0.0875,0.045,0.0525,0.1,0.055,0.2375,0.175
0.9,0.11780487804878051,0.10477355827111155,0.11780487804878051,0.6025,0.0575,0.125,0.0825,0.6025,0.0475,0.0575,0.045,0.125,0.04,0.06,0.115,0.09,0.05,0.1,0.275,0.0925,0.0475,0.2175,0.0525,0.175,0.065,0.06,0.0425,0.0525,0.055,0.0825,0.2275,0.0525,0.0625,0.0725,0.1275,0.1025,0.0975,0.09,0.17,0.075,0.3325,0.0975,0.0625,0.0575,0.1125,0.0575,0.275,0.2075
1.0,0.1302439024390244,0.11603169888330767,0.1302439024390244,0.6625,0.0625,0.135,0.0875,0.6625,0.0475,0.065,0.0475,0.1375,0.045,0.075,0.1275,0.1025,0.055,0.1075,0.2925,0.1,0.05,0.24,0.055,0.1825,0.0725,0.06,0.05,0.0625,0.06,0.0875,0.2575,0.06,0.0625,0.0775,0.135,0.1125,0.11,0.095,0.2025,0.085,0.375,0.11,0.07,0.0625,0.135,0.065,0.3125,0.2275
1.1,0.13682926829268297,0.12317574247233483,0.13682926829268297,0.705,0.0625,0.1425,0.0925,0.705,0.055,0.065,0.05,0.1475,0.05,0.08,0.135,0.105,0.055,0.1125,0.3,0.1,0.055,0.2475,0.055,0.1925,0.075,0.0625,0.055,0.0625,0.0625,0.09,0.2725,0.0625,0.0675,0.0775,0.1425,0.12,0.1175,0.0975,0.2075,0.0925,0.4,0.1125,0.075,0.065,0.1375,0.0675,0.33,0.2475
1.2,0.1385975609756098,0.12535321897042087,0.1385975609756098,0.72,0.065,0.1475,0.09,0.72,0.0575,0.07,0.05,0.1525,0.0525,0.0825,0.14,0.1,0.055,0.1125,0.2975,0.0975,0.055,0.2525,0.055,0.2,0.0775,0.065,0.055,0.065,0.0625,0.09,0.2775,0.0675,0.0675,0.075,0.1475,0.115,0.12,0.1,0.21,0.0875,0.4025,0.11,0.075,0.065,0.14,0.07,0.335,0.2525
1.3,0.14121951219512194,0.12763696845677278,0.14121951219512194,0.7325,0.0675,0.1475,0.0925,0.7325,0.0575,0.0725,0.0525,0.155,0.0525,0.08,0.1425,0.1025,0.0575,0.1175,0.305,0.1,0.055,0.26,0.0575,0.1975,0.0775,0.0625,0.055,0.0675,0.0625,0.0925,0.285,0.07,0.07,0.075,0.1475,0.12,0.12,0.105,0.21,0.09,0.4125,0.1125,0.075,0.0675,0.145,0.075,0.34,0.255
1.4,0.14353658536585368,0.13106735329797195,0.14353658536585368,0.75,0.07,0.155,0.09,0.75,0.065,0.0725,0.0575,0.1575,0.0525,0.08,0.1425,0.1,0.0575,0.1175,0.3125,0.105,0.0525,0.265,0.0575,0.1975,0.0775,0.0625,0.055,0.07,0.0625,0.09,0.29,0.0725,0.07,0.075,0.155,0.12,0.1225,0.105,0.2125,0.09,0.4225,0.1125,0.0725,0.065,0.1525,0.0775,0.355,0.255
1.5,0.14432926829268297,0.13315361611623794,0.14432926829268297,0.76,0.0675,0.1575,0.09,0.76,0.065,0.0725,0.055,0.16,0.05,0.0825,0.1425,0.1,0.0575,0.1175,0.315,0.1075,0.0525,0.2625,0.0575,0.2025,0.08,0.065,0.055,0.0725,0.0625,0.085,0.29,0.07,0.0675,0.08,0.1575,0.1225,0.1225,0.1025,0.2075,0.09,0.4325,0.11,0.0725,0.0625,0.155,0.0775,0.365,0.2525
1.6,0.1457317073170732,0.13531720176018652,0.1457317073170732,0.77,0.0675,0.16,0.0925,0.77,0.0625,0.0725,0.055,0.1625,0.05,0.085,0.15,0.1,0.0575,0.1175,0.315,0.105,0.0525,0.275,0.0575,0.1975,0.0825,0.06,0.0525,0.0725,0.0625,0.085,0.3025,0.0725,0.0675,0.08,0.16,0.1225,0.1275,0.1025,0.2125,0.0925,0.4325,0.11,0.0725,0.0625,0.1525,0.0775,0.3725,0.255
1.7,0.14542682926829267,0.1361534984267716,0.14542682926829267,0.775,0.0675,0.155,0.09,0.775,0.0675,0.0675,0.055,0.165,0.0525,0.085,0.1425,0.0975,0.0575,0.1175,0.3225,0.11,0.055,0.2775,0.055,0.19,0.075,0.06,0.05,0.0725,0.0625,0.0825,0.3,0.075,0.065,0.085,0.155,0.1225,0.1175,0.105,0.21,0.09,0.43,0.1125,0.07,0.065,0.1525,0.0775,0.375,0.26
1.8,0.14597560975609758,0.138298543773946,0.14597560975609758,0.7875,0.0675,0.1575,0.09,0.7875,0.0675,0.0675,0.0525,0.165,0.055,0.085,0.1425,0.0925,0.06,0.12,0.3225,0.1075,0.05,0.2825,0.0575,0.19,0.075,0.0625,0.0525,0.075,0.0625,0.08,0.3075,0.075,0.06,0.0825,0.1575,0.125,0.12,0.1025,0.2075,0.09,0.4325,0.1125,0.0675,0.0625,0.155,0.0775,0.38,0.2575
1.9,0.14701219512195118,0.1401536825393032,0.14701219512195118,0.7975,0.065,0.155,0.09,0.7975,0.07,0.07,0.0525,0.175,0.055,0.0825,0.1375,0.095,0.065,0.1225,0.3275,0.1075,0.05,0.2875,0.0575,0.1875,0.07,0.06,0.0525,0.075,0.065,0.0775,0.3125,0.0775,0.06,0.0825,0.155,0.1275,0.1175,0.1,0.205,0.09,0.4325,0.1175,0.065,0.0625,0.155,0.0775,0.385,0.265
2.0,0.14689024390243904,0.14131328766493345,0.14689024390243904,0.805,0.065,0.1575,0.0875,0.805,0.07,0.065,0.0525,0.175,0.0575,0.08,0.135,0.0925,0.065,0.1225,0.3325,0.1125,0.05,0.29,0.0575,0.19,0.065,0.06,0.0525,0.0725,0.0675,0.075,0.3175,0.075,0.0625,0.0875,0.1575,0.125,0.1225,0.0975,0.1975,0.085,0.425,0.115,0.065,0.065,0.1475,0.075,0.3875,0.27
2.1,0.14475609756097557,0.14132949401117198,0.14475609756097557,0.8025,0.065,0.155,0.085,0.8025,0.06,0.0625,0.05,0.17,0.055,0.0775,0.135,0.09,0.065,0.1225,0.3275,0.1125,0.05,0.29,0.0575,0.1875,0.065,0.055,0.0525,0.0725,0.07,0.0725,0.3175,0.07,0.0625,0.085,0.155,0.1125,0.1225,0.095,0.195,0.0775,0.4225,0.1125,0.065,0.065,0.145,0.075,0.39,0.265
2.2,0.14451219512195124,0.14280745555983454,0.14451219512195124,0.81,0.065,0.1575,0.085,0.81,0.055,0.055,0.055,0.1575,0.0525,0.0775,0.1325,0.1025,0.0675,0.1225,0.3275,0.1125,0.0525,0.29,0.0575,0.1925,0.065,0.055,0.05,0.07,0.0675,0.065,0.3275,0.0675,0.0575,0.085,0.1625,0.12,0.1225,0.0875,0.205,0.075,0.415,0.1125,0.065,0.0575,0.145,0.07,0.39,0.2675
2.3,0.1445731707317073,0.14336324157986913,0.1445731707317073,0.815,0.0625,0.1575,0.085,0.815,0.0575,0.0525,0.05,0.1575,0.0525,0.0775,0.135,0.1,0.0675,0.125,0.325,0.11,0.0525,0.29,0.0575,0.1925,0.07,0.055,0.05,0.0725,0.0675,0.0625,0.33,0.0675,0.055,0.085,0.165,0.1225,0.1225,0.085,0.21,0.0725,0.41,0.1125,0.065,0.0575,0.1475,0.0675,0.39,0.2675
2.4,0.14567073170731706,0.1468075149998808,0.14567073170731706,0.8325,0.0625,0.1575,0.08,0.8325,0.055,0.0525,0.0475,0.1575,0.055,0.0775,0.1375,0.1,0.07,0.1275,0.34,0.1125,0.0525,0.2925,0.0575,0.1875,0.07,0.0525,0.05,0.07,0.0675,0.0625,0.3375,0.065,0.0525,0.0925,0.165,0.125,0.1225,0.08,0.21,0.0725,0.4125,0.1125,0.065,0.0575,0.14,0.065,0.4,0.27
2.5,0.14554878048780487,0.14720621030435954,0.14554878048780487,0.835,0.06,0.155,0.0825,0.835,0.055,0.05,0.0475,0.155,0.055,0.075,0.14,0.0975,0.07,0.1275,0.34,0.11,0.0525,0.2975,0.0575,0.185,0.0725,0.0525,0.05,0.065,0.0675,0.065,0.34,0.065,0.05,0.095,0.1675,0.1225,0.125,0.0825,0.2125,0.07,0.4075,0.115,0.0675,0.06,0.135,0.06,0.4,0.27
2.6,0.1473170731707317,0.15002376868990286,0.1473170731707317,0.8525,0.0625,0.15,0.0875,0.8525,0.0575,0.0475,0.0475,0.15,0.0575,0.0725,0.1325,0.095,0.0725,0.1325,0.345,0.1125,0.0525,0.3025,0.0575,0.1925,0.07,0.0575,0.0525,0.0625,0.07,0.07,0.345,0.0625,0.05,0.095,0.1725,0.12,0.1275,0.0875,0.215,0.0675,0.405,0.1175,0.0725,0.06,0.13,0.0625,0.4125,0.275
2.7,0.14664634146341463,0.15081850843518876,0.14664634146341463,0.8575,0.06,0.1475,0.0875,0.8575,0.055,0.0475,0.0475,0.1475,0.0575,0.0725,0.1325,0.095,0.075,0.135,0.34,0.1025,0.05,0.305,0.0575,0.185,0.07,0.0575,0.0525,0.0625,0.07,0.0675,0.3475,0.06,0.0475,0.095,0.17,0.12,0.125,0.0875,0.21,0.07,0.4075,0.1175,0.0725,0.06,0.13,0.0625,0.415,0.2725
2.8,0.1490243902439025,0.15390038555315147,0.1490243902439025,0.8775,0.0625,0.1525,0.0875,0.8775,0.055,0.05,0.0475,0.1525,0.0575,0.0725,0.135,0.095,0.075,0.14,0.35,0.105,0.0525,0.3075,0.06,0.1875,0.07,0.055,0.0525,0.0625,0.07,0.0675,0.3525,0.0575,0.05,0.095,0.1675,0.125,0.125,0.0875,0.205,0.07,0.41,0.13,0.0725,0.07,0.1275,0.0625,0.42,0.285
2.9,0.14939024390243902,0.1561920921843232,0.14939024390243902,0.8925,0.06,0.1575,0.0875,0.8925,0.055,0.05,0.0475,0.1575,0.0575,0.075,0.135,0.0875,0.0725,0.135,0.345,0.105,0.055,0.3125,0.0625,0.19,0.07,0.0575,0.0525,0.06,0.065,0.0675,0.3575,0.0575,0.0525,0.09,0.1725,0.125,0.125,0.0875,0.2,0.075,0.4125,0.125,0.075,0.07,0.1225,0.06,0.4275,0.2825
3.0,0.15018292682926832,0.1578334548332653,0.15018292682926832,0.9025,0.0625,0.1625,0.085,0.9025,0.0525,0.05,0.05,0.1625,0.0575,0.075,0.13,0.0875,0.0725,0.135,0.35,0.1025,0.055,0.3075,0.06,0.19,0.07,0.0625,0.0525,0.0625,0.0625,0.0675,0.36,0.0575,0.05,0.09,0.17,0.125,0.1275,0.085,0.1975,0.075,0.415,0.1275,0.08,0.0725,0.125,0.0625,0.435,0.285
3.1,0.15115853658536588,0.1582787537559648,0.15115853658536588,0.9025,0.0625,0.1625,0.0825,0.9025,0.055,0.05,0.05,0.1625,0.055,0.0775,0.13,0.0825,0.0725,0.135,0.355,0.1075,0.055,0.31,0.06,0.1925,0.07,0.0625,0.0525,0.0625,0.0625,0.0725,0.365,0.06,0.06,0.0875,0.1675,0.125,0.13,0.0875,0.195,0.0775,0.4175,0.13,0.075,0.0725,0.125,0.0625,0.44,0.285
3.2,0.14884146341463417,0.15860683246687543,0.14884146341463417,0.905,0.06,0.1625,0.0775,0.905,0.055,0.05,0.05,0.1625,0.055,0.075,0.1275,0.075,0.07,0.1325,0.35,0.1025,0.0525,0.3075,0.06,0.18,0.07,0.0575,0.05,0.0625,0.06,0.0725,0.3625,0.06,0.0575,0.0825,0.1625,0.1225,0.12,0.0875,0.19,0.0775,0.415,0.1275,0.0775,0.0675,0.125,0.0625,0.4425,0.28
3.3,0.15018292682926832,0.1595978083816133,0.15018292682926832,0.9125,0.0625,0.1625,0.08,0.9125,0.055,0.0525,0.0475,0.1625,0.055,0.0775,0.1325,0.07,0.0725,0.1375,0.3525,0.0975,0.0525,0.3075,0.0575,0.185,0.0725,0.06,0.05,0.0625,0.06,0.075,0.3625,0.0625,0.0625,0.085,0.17,0.12,0.1175,0.09,0.19,0.08,0.42,0.13,0.0775,0.07,0.125,0.065,0.445,0.2775
3.4,0.1501829268292683,0.16255898577085276,0.1501829268292683,0.9325,0.0625,0.165,0.08,0.9325,0.055,0.0525,0.045,0.165,0.055,0.0775,0.1275,0.07,0.0675,0.1275,0.34,0.09,0.055,0.3125,0.06,0.1825,0.0675,0.065,0.0525,0.0625,0.06,0.07,0.3675,0.0625,0.0625,0.08,0.1775,0.1225,0.1125,0.0875,0.1875,0.0825,0.4225,0.13,0.0775,0.07,0.125,0.065,0.4525,0.28
3.5,0.15182926829268292,0.16530461939143604,0.15182926829268292,0.9475,0.065,0.1675,0.0825,0.9475,0.055,0.0525,0.0475,0.1675,0.055,0.0725,0.1325,0.065,0.0675,0.1275,0.345,0.09,0.0575,0.3175,0.065,0.1825,0.07,0.065,0.055,0.0625,0.06,0.07,0.3775,0.0625,0.065,0.0825,0.1775,0.115,0.115,0.09,0.18,0.0825,0.43,0.1325,0.0775,0.0725,0.1275,0.065,0.4575,0.285
3.6,0.1532926829268293,0.1673906987978168,0.1532926829268293,0.9625,0.065,0.17,0.0775,0.9625,0.055,0.055,0.05,0.17,0.0575,0.07,0.1375,0.07,0.065,0.12,0.3375,0.09,0.0575,0.315,0.065,0.1875,0.0725,0.0625,0.0575,0.065,0.0625,0.075,0.38,0.0625,0.07,0.0775,0.18,0.12,0.1225,0.09,0.175,0.08,0.44,0.1325,0.075,0.07,0.1325,0.065,0.4625,0.29
3.7,0.1540853658536586,0.1686538850918456,0.1540853658536586,0.9675,0.065,0.17,0.08,0.9675,0.055,0.055,0.0525,0.17,0.0575,0.07,0.1375,0.0675,0.0675,0.1225,0.3475,0.095,0.0575,0.3175,0.065,0.1925,0.07,0.06,0.0575,0.065,0.0625,0.075,0.385,0.0625,0.07,0.08,0.18,0.115,0.125,0.0875,0.175,0.08,0.4425,0.1325,0.075,0.07,0.1325,0.065,0.465,0.2875
3.8,0.15195121951219512,0.16918159549611284,0.15195121951219512,0.9675,0.0625,0.165,0.075,0.9675,0.055,0.055,0.05,0.165,0.0575,0.065,0.1375,0.0625,0.065,0.115,0.3325,0.0875,0.055,0.3125,0.0625,0.1975,0.07,0.0625,0.0575,0.0675,0.0625,0.075,0.3825,0.06,0.07,0.0725,0.185,0.1075,0.1225,0.085,0.165,0.08,0.45,0.1225,0.075,0.06,0.1325,0.07,0.4725,0.28
3.9,0.1542073170731707,0.1706179934900127,0.1542073170731707,0.975,0.0625,0.165,0.0825,0.975,0.055,0.0525,0.055,0.165,0.0575,0.0675,0.14,0.06,0.0625,0.1125,0.3375,0.09,0.0575,0.32,0.0625,0.205,0.0675,0.0675,0.0575,0.0675,0.0625,0.0875,0.3875,0.06,0.075,0.0725,0.1825,0.115,0.13,0.0925,0.17,0.0825,0.4525,0.1225,0.0725,0.0575,0.13,0.0725,0.4775,0.285
4.0,0.15250000000000002,0.17075424502811623,0.15250000000000002,0.975,0.0625,0.165,0.0825,0.975,0.055,0.0525,0.0525,0.165,0.055,0.07,0.1375,0.06,0.0625,0.11,0.325,0.0825,0.0575,0.315,0.06,0.1975,0.065,0.065,0.0575,0.0675,0.0625,0.0875,0.3825,0.06,0.075,0.0675,0.185,0.1125,0.125,0.0925,0.1675,0.085,0.4575,0.1175,0.07,0.05,0.13,0.075,0.4825,0.28
4.1,0.15341463414634143,0.17145784173714199,0.15341463414634143,0.98,0.0625,0.1625,0.0775,0.98,0.0525,0.0525,0.055,0.1625,0.055,0.07,0.1425,0.0625,0.0625,0.11,0.32,0.0775,0.0575,0.3175,0.06,0.205,0.0675,0.07,0.0575,0.0675,0.0625,0.09,0.3825,0.0575,0.0725,0.07,0.185,0.1125,0.125,0.095,0.1725,0.085,0.46,0.12,0.0725,0.05,0.1275,0.0775,0.485,0.2825
4.2,0.1553048780487805,0.1745981406198587,0.1553048780487805,1.0,0.065,0.1625,0.0775,1.0,0.0525,0.055,0.0575,0.1625,0.055,0.07,0.145,0.0675,0.065,0.115,0.3225,0.075,0.0575,0.3175,0.06,0.2025,0.0675,0.07,0.0575,0.07,0.0625,0.09,0.385,0.055,0.07,0.0675,0.19,0.115,0.1225,0.0975,0.175,0.085,0.4675,0.1225,0.075,0.05,0.1325,0.0775,0.4925,0.29
4.3,0.1540853658536585,0.17431202407482177,0.1540853658536585,0.995,0.0625,0.1625,0.075,0.995,0.05,0.055,0.0575,0.1625,0.055,0.07,0.1475,0.0725,0.0625,0.11,0.3125,0.0675,0.0575,0.3225,0.065,0.185,0.07,0.0625,0.0575,0.07,0.0625,0.09,0.3875,0.055,0.065,0.0675,0.185,0.11,0.1225,0.095,0.1775,0.085,0.47,0.1225,0.0725,0.05,0.1325,0.075,0.4925,0.2925
4.4,0.15347560975609756,0.17515922899658176,0.15347560975609756,0.9975,0.0625,0.1625,0.075,0.9975,0.0475,0.055,0.0575,0.1625,0.0575,0.0675,0.15,0.07,0.06,0.1075,0.3075,0.065,0.0575,0.3175,0.0625,0.18,0.0725,0.0625,0.0575,0.07,0.0675,0.09,0.3875,0.0525,0.0625,0.065,0.185,0.1025,0.1225,0.095,0.1725,0.085,0.475,0.1225,0.07,0.05,0.1325,0.075,0.4975,0.2975
4.5,0.1517682926829268,0.17439900626118823,0.1517682926829268,0.99,0.06,0.16,0.0725,0.99,0.05,0.0525,0.055,0.16,0.0575,0.065,0.1425,0.0675,0.06,0.1075,0.3,0.0625,0.0575,0.3175,0.06,0.18,0.0675,0.0625,0.055,0.0675,0.07,0.0925,0.3925,0.055,0.06,0.06,0.185,0.095,0.125,0.095,0.17,0.0825,0.4675,0.1225,0.065,0.05,0.13,0.0725,0.4975,0.2975
4.6,0.1514634146341464,0.17700676541582927,0.1514634146341464,1.0,0.06,0.1575,0.075,1.0,0.05,0.055,0.0575,0.165,0.0575,0.0625,0.1425,0.0625,0.0575,0.105,0.3025,0.0625,0.06,0.3125,0.0575,0.1725,0.0675,0.0625,0.055,0.0675,0.0675,0.085,0.3975,0.055,0.0475,0.06,0.1825,0.0925,0.1275,0.09,0.1575,0.085,0.4775,0.125,0.065,0.05,0.125,0.075,0.5075,0.3025
4.7,0.15024390243902444,0.17697388955654159,0.15024390243902444,1.0,0.06,0.1525,0.075,1.0,0.05,0.055,0.0575,0.1675,0.06,0.0625,0.14,0.06,0.06,0.1075,0.305,0.065,0.0575,0.305,0.0575,0.165,0.0675,0.06,0.055,0.0675,0.0675,0.08,0.395,0.0525,0.0425,0.0575,0.1825,0.09,0.125,0.085,0.1525,0.085,0.475,0.125,0.065,0.0475,0.1225,0.075,0.5075,0.3025
4.8,0.15024390243902438,0.1768351554949335,0.15024390243902438,0.9975,0.06,0.15,0.075,0.9975,0.05,0.0575,0.0575,0.165,0.065,0.0625,0.1375,0.0625,0.0625,0.1125,0.315,0.0675,0.06,0.3,0.0575,0.1625,0.065,0.0575,0.055,0.0675,0.0675,0.0775,0.395,0.05,0.045,0.06,0.175,0.0875,0.1225,0.0875,0.15,0.085,0.475,0.125,0.06,0.045,0.1225,0.075,0.5075,0.31
4.9,0.14835365853658536,0.17782785742638585,0.14835365853658536,1.0,0.0575,0.145,0.0675,1.0,0.05,0.055,0.0575,0.1625,0.065,0.06,0.1325,0.055,0.0625,0.1125,0.3175,0.065,0.0575,0.2975,0.06,0.1525,0.0625,0.0525,0.0525,0.065,0.065,0.0675,0.405,0.05,0.04,0.0625,0.175,0.085,0.125,0.08,0.145,0.0825,0.4675,0.125,0.0575,0.045,0.12,0.0725,0.5075,0.31
5.0,0.14835365853658536,0.1773162134712611,0.14835365853658536,0.9975,0.0575,0.1425,0.07,0.9975,0.05,0.055,0.055,0.1625,0.065,0.0575,0.1325,0.055,0.0625,0.1125,0.315,0.0625,0.0575,0.295,0.06,0.155,0.0625,0.055,0.0525,0.065,0.065,0.07,0.405,0.05,0.05,0.0625,0.175,0.08,0.1275,0.0775,0.1425,0.085,0.47,0.125,0.0575,0.0475,0.1225,0.0725,0.5075,0.305
5.1,0.1485975609756098,0.17752022280925145,0.1485975609756098,1.0,0.0575,0.1375,0.07,1.0,0.05,0.055,0.0575,0.1625,0.065,0.0575,0.13,0.05,0.0575,0.1075,0.3125,0.065,0.06,0.2925,0.06,0.1575,0.06,0.055,0.0525,0.065,0.06,0.0725,0.4075,0.0525,0.0575,0.065,0.175,0.08,0.13,0.0775,0.1375,0.085,0.4675,0.1275,0.0625,0.0525,0.1225,0.07,0.51,0.3075
5.2,0.1473170731707317,0.17692787410506045,0.1473170731707317,0.9975,0.06,0.1375,0.0675,0.9975,0.05,0.055,0.0475,0.1625,0.065,0.0625,0.1275,0.0525,0.055,0.1025,0.3025,0.0625,0.06,0.29,0.06,0.15,0.0625,0.055,0.0525,0.0675,0.06,0.0675,0.405,0.0525,0.0575,0.0625,0.17,0.085,0.125,0.0775,0.1375,0.085,0.4675,0.125,0.0625,0.0525,0.1225,0.07,0.51,0.305
5.3,0.14762195121951222,0.17768064598365335,0.14762195121951222,1.0,0.06,0.13,0.0675,1.0,0.05,0.06,0.0475,0.165,0.065,0.0625,0.1225,0.0475,0.0575,0.105,0.3075,0.065,0.06,0.285,0.0625,0.1575,0.06,0.055,0.0525,0.0675,0.06,0.0675,0.405,0.0525,0.06,0.065,0.1675,0.08,0.13,0.075,0.1275,0.085,0.4725,0.1225,0.0625,0.0525,0.1225,0.07,0.515,0.305
5.4,0.14945121951219514,0.1781412431148744,0.14945121951219514,1.0,0.06,0.13,0.07,1.0,0.05,0.0575,0.0475,0.1625,0.0675,0.0625,0.13,0.0525,0.0575,0.11,0.31,0.0675,0.06,0.2925,0.0675,0.16,0.0625,0.06,0.0525,0.0675,0.0575,0.07,0.405,0.0525,0.0625,0.065,0.1675,0.085,0.1275,0.08,0.13,0.085,0.48,0.125,0.06,0.0525,0.12,0.075,0.52,0.31
5.5,0.14914634146341463,0.17815587323897555,0.14914634146341463,0.9975,0.06,0.1325,0.07,0.9975,0.05,0.06,0.0475,0.16,0.0675,0.065,0.1325,0.055,0.0575,0.11,0.31,0.0675,0.06,0.285,0.0675,0.155,0.065,0.0575,0.0525,0.07,0.055,0.065,0.4025,0.05,0.0625,0.065,0.1675,0.085,0.1275,0.0725,0.13,0.085,0.485,0.125,0.06,0.0525,0.1225,0.075,0.525,0.31
5.6,0.15079268292682926,0.17828573857885208,0.15079268292682926,1.0,0.0625,0.1425,0.07,1.0,0.0475,0.065,0.0475,0.16,0.0675,0.0675,0.1425,0.0625,0.06,0.1125,0.3125,0.07,0.0575,0.2875,0.0675,0.1575,0.0675,0.0575,0.055,0.07,0.0575,0.0675,0.4025,0.05,0.065,0.065,0.1675,0.09,0.13,0.075,0.135,0.0875,0.49,0.125,0.06,0.0525,0.1225,0.0725,0.525,0.3075
5.7,0.15018292682926826,0.17786881148405623,0.15018292682926826,0.995,0.0625,0.1425,0.0725,0.995,0.045,0.0625,0.0475,0.155,0.065,0.0675,0.1425,0.0625,0.065,0.1175,0.3125,0.0725,0.0575,0.285,0.0675,0.1575,0.0675,0.06,0.055,0.07,0.0575,0.065,0.4,0.05,0.065,0.0625,0.1675,0.0875,0.1275,0.0725,0.13,0.0875,0.4925,0.125,0.0575,0.0525,0.1225,0.0725,0.5275,0.305
5.8,0.1521951219512195,0.1784487655530969,0.1521951219512195,0.995,0.0625,0.15,0.075,0.995,0.045,0.065,0.05,0.1575,0.0625,0.0675,0.15,0.07,0.0625,0.115,0.3125,0.0725,0.065,0.285,0.0675,0.155,0.07,0.06,0.055,0.075,0.06,0.0675,0.395,0.0475,0.0625,0.065,0.1625,0.09,0.125,0.075,0.135,0.0875,0.5075,0.13,0.0575,0.06,0.1325,0.075,0.535,0.3125
5.9,0.15207317073170729,0.17916379482962327,0.15207317073170729,1.0,0.0625,0.15,0.075,1.0,0.045,0.065,0.0475,0.1575,0.0625,0.0675,0.15,0.0725,0.0625,0.1175,0.31,0.07,0.0625,0.285,0.0675,0.15,0.0675,0.06,0.055,0.075,0.06,0.07,0.395,0.0475,0.065,0.0625,0.16,0.0925,0.1175,0.08,0.1325,0.09,0.51,0.13,0.0575,0.06,0.1325,0.075,0.5375,0.31
6.0,0.15097560975609756,0.1791288863966428,0.15097560975609756,0.9975,0.0625,0.1475,0.075,0.9975,0.05,0.065,0.045,0.16,0.0625,0.0675,0.1475,0.0775,0.0625,0.1125,0.31,0.0725,0.0625,0.2775,0.0675,0.15,0.0675,0.055,0.0575,0.0725,0.0625,0.0675,0.395,0.045,0.0575,0.065,0.155,0.0925,0.12,0.075,0.125,0.09,0.5125,0.1275,0.0525,0.0575,0.13,0.075,0.54,0.305
6.1,0.15109756097560975,0.17955742404767483,0.15109756097560975,1.0,0.0625,0.1475,0.075,1.0,0.05,0.065,0.045,0.1575,0.0625,0.0675,0.15,0.075,0.0625,0.115,0.3175,0.0725,0.0675,0.275,0.0675,0.1475,0.07,0.0525,0.0575,0.0725,0.0625,0.07,0.39,0.0425,0.06,0.0675,0.155,0.0925,0.1125,0.0775,0.1275,0.0875,0.5125,0.125,0.05,0.055,0.1325,0.075,0.5425,0.3075
6.2,0.15195121951219515,0.17979282809694647,0.15195121951219515,1.0,0.065,0.1525,0.0775,1.0,0.05,0.0675,0.045,0.16,0.0625,0.0675,0.1525,0.0775,0.065,0.115,0.32,0.075,0.0675,0.2775,0.0675,0.1525,0.0675,0.0525,0.0575,0.07,0.065,0.07,0.3875,0.0425,0.06,0.07,0.155,0.09,0.115,0.08,0.1275,0.0875,0.52,0.125,0.05,0.055,0.1325,0.0775,0.5425,0.3075
6.3,0.1510365853658536,0.18011681136052163,0.1510365853658536,1.0,0.065,0.15,0.0775,1.0,0.05,0.0675,0.045,0.16,0.0625,0.065,0.15,0.08,0.065,0.115,0.32,0.0775,0.065,0.275,0.0675,0.1525,0.065,0.05,0.0575,0.07,0.065,0.065,0.3875,0.0425,0.055,0.07,0.155,0.09,0.1125,0.0775,0.1225,0.085,0.5225,0.1225,0.05,0.0525,0.13,0.08,0.5425,0.305
6.4,0.14993902439024387,0.18065471023683694,0.14993902439024387,1.0,0.0625,0.1425,0.075,1.0,0.05,0.0675,0.0425,0.16,0.0625,0.0625,0.1425,0.075,0.07,0.1175,0.3175,0.0725,0.065,0.27,0.0625,0.1425,0.06,0.045,0.0575,0.075,0.0675,0.065,0.385,0.0425,0.05,0.0675,0.1525,0.09,0.11,0.0775,0.1125,0.085,0.5275,0.125,0.05,0.0525,0.135,0.0825,0.545,0.3075
6.5,0.14926829268292682,0.1808703921341014,0.14926829268292682,1.0,0.06,0.135,0.075,1.0,0.0525,0.065,0.0425,0.1625,0.06,0.0625,0.1425,0.075,0.0725,0.12,0.32,0.07,0.065,0.2675,0.06,0.135,0.06,0.045,0.0575,0.075,0.0675,0.0625,0.3875,0.0425,0.0475,0.065,0.1525,0.0875,0.105,0.075,0.1125,0.085,0.5275,0.125,0.05,0.0525,0.135,0.0825,0.545,0.3025
6.6,0.1495121951219512,0.1811617484999846,0.1495121951219512,1.0,0.06,0.135,0.075,1.0,0.055,0.0675,0.0475,0.165,0.06,0.0625,0.14,0.07,0.08,0.125,0.325,0.07,0.0625,0.27,0.0575,0.135,0.06,0.0475,0.0575,0.075,0.0675,0.0625,0.3875,0.0425,0.045,0.065,0.1525,0.0825,0.1,0.075,0.115,0.085,0.5275,0.1225,0.05,0.0525,0.135,0.0825,0.55,0.2975
6.7,0.14945121951219512,0.1808647185079274,0.14945121951219512,0.9975,0.06,0.1375,0.075,0.9975,0.0575,0.065,0.0475,0.1625,0.06,0.0625,0.1425,0.065,0.08,0.1225,0.3225,0.07,0.06,0.27,0.0575,0.1375,0.0625,0.0475,0.0575,0.0725,0.07,0.0675,0.3875,0.0425,0.0475,0.065,0.155,0.0825,0.1,0.075,0.115,0.085,0.5275,0.1225,0.05,0.0525,0.1325,0.0825,0.5525,0.295
6.8,0.14920731707317073,0.18130912746620897,0.14920731707317073,1.0,0.06,0.14,0.075,1.0,0.06,0.065,0.0475,0.1625,0.0575,0.0625,0.14,0.06,0.08,0.1225,0.32,0.0675,0.06,0.2625,0.0525,0.14,0.0625,0.0475,0.055,0.0725,0.07,0.0675,0.3825,0.045,0.0475,0.0625,0.16,0.0825,0.1025,0.075,0.115,0.0825,0.5275,0.125,0.05,0.0525,0.135,0.0825,0.5575,0.2975
6.9,0.14920731707317073,0.18114594492037242,0.14920731707317073,1.0,0.06,0.1375,0.0775,1.0,0.0625,0.0625,0.0475,0.16,0.055,0.0625,0.1375,0.0625,0.0775,0.12,0.32,0.07,0.06,0.265,0.0525,0.1375,0.0625,0.05,0.055,0.0725,0.07,0.07,0.3825,0.045,0.0475,0.06,0.16,0.0825,0.1025,0.0775,0.1175,0.0825,0.525,0.1275,0.0525,0.0525,0.135,0.08,0.5575,0.2975
7.0,0.14987804878048783,0.18118508191456567,0.14987804878048783,1.0,0.0625,0.1375,0.075,1.0,0.0625,0.065,0.0475,0.1575,0.055,0.0625,0.1375,0.06,0.075,0.1175,0.3225,0.075,0.0625,0.27,0.055,0.1375,0.0625,0.05,0.055,0.075,0.07,0.0725,0.3825,0.0475,0.0525,0.0625,0.1575,0.0775,0.0975,0.08,0.12,0.0825,0.525,0.1275,0.055,0.055,0.135,0.08,0.56,0.3
7.1,0.14945121951219514,0.18140417092839983,0.14945121951219514,1.0,0.06,0.135,0.0775,1.0,0.0625,0.0675,0.05,0.1575,0.055,0.0625,0.135,0.06,0.0725,0.115,0.325,0.0775,0.0575,0.2675,0.0525,0.1425,0.06,0.0525,0.055,0.0725,0.07,0.075,0.385,0.0475,0.05,0.06,0.16,0.0775,0.1,0.0825,0.115,0.0825,0.525,0.1225,0.055,0.05,0.1325,0.08,0.56,0.2975
7.2,0.14847560975609755,0.18160688417768134,0.14847560975609755,1.0,0.0575,0.135,0.0775,1.0,0.06,0.0675,0.0525,0.155,0.055,0.0625,0.135,0.055,0.07,0.1125,0.32,0.0775,0.0575,0.26,0.0525,0.14,0.06,0.05,0.055,0.0725,0.0675,0.0725,0.3825,0.0475,0.05,0.06,0.16,0.0775,0.1,0.0775,0.1125,0.0825,0.525,0.125,0.0525,0.0525,0.13,0.08,0.565,0.2975
7.3,0.1478658536585366,0.182159773891689,0.1478658536585366,1.0,0.0575,0.135,0.0725,1.0,0.06,0.065,0.0525,0.1525,0.0525,0.0625,0.135,0.05,0.0675,0.1075,0.3175,0.075,0.0575,0.2625,0.05,0.1375,0.06,0.0525,0.0575,0.0725,0.0625,0.07,0.3825,0.0475,0.0475,0.0575,0.165,0.0725,0.095,0.0775,0.12,0.0825,0.5275,0.1275,0.05,0.0525,0.1325,0.08,0.565,0.3
7.4,0.14780487804878048,0.18123576068705205,0.14780487804878048,0.9975,0.0575,0.1325,0.075,0.9975,0.06,0.065,0.0525,0.15,0.0525,0.065,0.1325,0.045,0.065,0.105,0.315,0.075,0.06,0.265,0.0525,0.1425,0.06,0.055,0.0575,0.0725,0.0625,0.07,0.385,0.045,0.045,0.0575,0.1675,0.075,0.1025,0.0775,0.1225,0.0825,0.5175,0.125,0.0525,0.055,0.1325,0.0775,0.5625,0.3
7.5,0.1482317073170732,0.18204063797046757,0.1482317073170732,1.0,0.0575,0.135,0.0725,1.0,0.06,0.0675,0.0525,0.1525,0.0475,0.065,0.135,0.04,0.0625,0.1025,0.315,0.0775,0.06,0.2725,0.0575,0.145,0.0625,0.055,0.0575,0.07,0.065,0.0725,0.395,0.045,0.045,0.0575,0.1675,0.07,0.1075,0.075,0.1275,0.0825,0.5175,0.12,0.0525,0.0525,0.1325,0.0775,0.565,0.2925
7.6,0.1482317073170731,0.1825465559582186,0.1482317073170731,1.0,0.0575,0.135,0.07,1.0,0.0575,0.065,0.055,0.1475,0.0475,0.0625,0.1325,0.04,0.0575,0.0975,0.3125,0.08,0.0625,0.2675,0.0575,0.1475,0.0625,0.0525,0.06,0.07,0.065,0.075,0.3925,0.045,0.0475,0.06,0.1675,0.07,0.1125,0.07,0.1225,0.0825,0.5225,0.1225,0.05,0.0575,0.135,0.0775,0.5725,0.295
7.7,0.1490853658536585,0.1825469836761385,0.1490853658536585,1.0,0.0575,0.1375,0.0725,1.0,0.06,0.0675,0.0525,0.155,0.0475,0.065,0.1325,0.0425,0.0575,0.095,0.305,0.08,0.0625,0.2725,0.0575,0.15,0.065,0.055,0.0625,0.07,0.065,0.0775,0.3975,0.045,0.0475,0.0575,0.165,0.07,0.11,0.0725,0.13,0.0825,0.525,0.1225,0.05,0.055,0.1375,0.0775,0.57,0.3
7.8,0.149390243902439,0.18278901312565998,0.149390243902439,1.0,0.06,0.135,0.0725,1.0,0.06,0.0675,0.0525,0.155,0.05,0.065,0.1325,0.0425,0.0575,0.095,0.3025,0.08,0.0625,0.275,0.06,0.1525,0.065,0.055,0.0625,0.0675,0.065,0.075,0.4,0.0475,0.05,0.055,0.1625,0.07,0.1125,0.0725,0.13,0.085,0.525,0.12,0.05,0.055,0.135,0.0775,0.5725,0.305
7.9,0.14853658536585365,0.18249455021077465,0.14853658536585365,1.0,0.0575,0.135,0.0725,1.0,0.0575,0.0675,0.05,0.1525,0.05,0.0625,0.13,0.0475,0.0575,0.095,0.3,0.0775,0.0625,0.265,0.06,0.1525,0.065,0.055,0.0625,0.0675,0.0625,0.0725,0.39,0.045,0.05,0.0575,0.1625,0.0775,0.1125,0.0725,0.12,0.085,0.5275,0.12,0.0525,0.055,0.135,0.0775,0.575,0.3025
8.0,0.14786585365853655,0.18369560002398996,0.14786585365853655,1.0,0.0575,0.14,0.07,1.0,0.0525,0.07,0.05,0.155,0.05,0.06,0.1275,0.045,0.0525,0.09,0.2875,0.07,0.0625,0.265,0.0625,0.1475,0.065,0.0575,0.0625,0.07,0.06,0.065,0.3975,0.045,0.0425,0.0575,0.16,0.07,0.11,0.07,0.12,0.085,0.535,0.125,0.0575,0.055,0.14,0.0775,0.58,0.3075
8.1,0.14731707317073173,0.18336571334482915,0.14731707317073173,1.0,0.0575,0.1325,0.07,1.0,0.0525,0.07,0.05,0.1575,0.0525,0.0625,0.1275,0.0475,0.0525,0.09,0.29,0.065,0.065,0.2625,0.065,0.1425,0.065,0.055,0.0625,0.07,0.06,0.0625,0.395,0.045,0.0425,0.0575,0.1575,0.0725,0.1075,0.0675,0.1175,0.0875,0.53,0.125,0.0575,0.055,0.1325,0.075,0.58,0.3075
8.2,0.1453658536585366,0.18292304874142193,0.1453658536585366,0.9975,0.0575,0.13,0.0675,0.9975,0.05,0.07,0.05,0.155,0.0525,0.065,0.125,0.0525,0.0525,0.0925,0.2925,0.06,0.0625,0.2525,0.0625,0.14,0.0625,0.055,0.0625,0.0675,0.06,0.0575,0.39,0.045,0.035,0.06,0.16,0.0725,0.105,0.0625,0.1125,0.0875,0.53,0.1175,0.0575,0.05,0.13,0.075,0.58,0.2925
8.3,0.1458536585365854,0.18353374926906896,0.1458536585365854,1.0,0.0575,0.1325,0.065,1.0,0.0525,0.065,0.05,0.155,0.0525,0.065,0.1225,0.06,0.0525,0.0925,0.2975,0.06,0.065,0.25,0.065,0.1375,0.0625,0.055,0.065,0.0675,0.0625,0.055,0.39,0.0475,0.0325,0.0625,0.1575,0.075,0.105,0.0575,0.115,0.0875,0.535,0.115,0.0575,0.05,0.1325,0.075,0.5825,0.2925
8.4,0.14463414634146346,0.18402972401716047,0.14463414634146346,1.0,0.055,0.1325,0.0675,1.0,0.0525,0.0675,0.0475,0.155,0.0525,0.0625,0.1225,0.06,0.05,0.09,0.2925,0.055,0.06,0.24,0.0675,0.1325,0.0625,0.0525,0.0675,0.0675,0.0625,0.0525,0.3875,0.045,0.0325,0.0625,0.1575,0.075,0.105,0.0525,0.1075,0.0875,0.54,0.1125,0.0575,0.0475,0.135,0.0775,0.5875,0.2875
8.5,0.1440853658536585,0.1833934495744528,0.1440853658536585,1.0,0.055,0.1325,0.0675,1.0,0.0525,0.0675,0.0475,0.155,0.0525,0.0625,0.1225,0.0575,0.05,0.09,0.2875,0.055,0.06,0.24,0.0675,0.1325,0.0625,0.055,0.065,0.07,0.065,0.05,0.39,0.045,0.0325,0.06,0.1575,0.0725,0.1025,0.055,0.11,0.0875,0.5325,0.1125,0.0575,0.045,0.1325,0.0775,0.5825,0.2875
8.6,0.14298780487804877,0.18356996698291436,0.14298780487804877,1.0,0.055,0.1325,0.065,1.0,0.0525,0.065,0.05,0.1525,0.0525,0.06,0.1225,0.0475,0.0475,0.0875,0.29,0.0575,0.0575,0.235,0.065,0.1325,0.0625,0.055,0.065,0.075,0.065,0.0425,0.3925,0.045,0.0275,0.06,0.1575,0.07,0.1075,0.0525,0.1025,0.0875,0.53,0.1125,0.055,0.045,0.135,0.0775,0.58,0.285
8.7,0.1426829268292683,0.18336155660392436,0.1426829268292683,1.0,0.055,0.1325,0.065,1.0,0.0525,0.065,0.0475,0.1525,0.05,0.0625,0.1225,0.05,0.0475,0.0875,0.285,0.0575,0.0575,0.235,0.065,0.1325,0.0625,0.055,0.06,0.075,0.065,0.04,0.3925,0.045,0.0275,0.0575,0.155,0.07,0.105,0.0525,0.1025,0.0875,0.525,0.1175,0.055,0.05,0.1325,0.0775,0.58,0.29
8.8,0.14323170731707316,0.1832242094971774,0.14323170731707316,0.9975,0.055,0.135,0.065,0.9975,0.0525,0.065,0.05,0.1525,0.05,0.0625,0.1225,0.0525,0.0475,0.0875,0.2825,0.055,0.0575,0.235,0.0625,0.135,0.0625,0.055,0.0575,0.0775,0.06,0.0425,0.39,0.045,0.0375,0.055,0.16,0.0675,0.105,0.0525,0.1075,0.09,0.53,0.1175,0.055,0.0475,0.135,0.0825,0.5825,0.29
8.9,0.14237804878048782,0.18370837110949773,0.14237804878048782,1.0,0.0525,0.1325,0.065,1.0,0.0525,0.065,0.05,0.155,0.0475,0.0625,0.1225,0.05,0.045,0.085,0.28,0.0525,0.0625,0.2225,0.0575,0.1325,0.0625,0.0575,0.0575,0.08,0.0575,0.035,0.39,0.0475,0.0325,0.055,0.1625,0.07,0.1025,0.045,0.105,0.09,0.53,0.1175,0.055,0.05,0.135,0.0825,0.5825,0.2925
9.0,0.14195121951219514,0.18322776060032592,0.14195121951219514,0.9975,0.0525,0.1325,0.065,0.9975,0.055,0.06,0.05,0.1475,0.0425,0.0625,0.1225,0.0525,0.045,0.085,0.285,0.0525,0.065,0.22,0.0575,0.1325,0.0625,0.06,0.0575,0.0825,0.0575,0.0325,0.3825,0.05,0.0325,0.06,0.1625,0.0675,0.095,0.0425,0.1075,0.09,0.5325,0.115,0.0525,0.0525,0.14,0.085,0.5825,0.285
9.1,0.14237804878048785,0.18363865567904644,0.14237804878048785,1.0,0.055,0.135,0.0675,1.0,0.055,0.0575,0.05,0.1425,0.04,0.0675,0.1225,0.055,0.0475,0.085,0.285,0.0525,0.0625,0.215,0.0525,0.135,0.0625,0.06,0.0575,0.0825,0.0625,0.035,0.38,0.05,0.0325,0.0575,0.1625,0.0725,0.1,0.0425,0.105,0.095,0.535,0.1175,0.05,0.0575,0.1375,0.085,0.5875,0.285
9.2,0.14286585365853663,0.18344980121475923,0.14286585365853663,0.9975,0.0575,0.1375,0.0675,0.9975,0.0575,0.0575,0.05,0.1425,0.04,0.0675,0.1225,0.0575,0.0475,0.085,0.285,0.055,0.0625,0.2125,0.0525,0.1375,0.0625,0.0625,0.06,0.0825,0.0625,0.035,0.375,0.0525,0.0325,0.0575,0.165,0.0725,0.1,0.04,0.105,0.095,0.54,0.1175,0.05,0.0575,0.1425,0.085,0.59,0.285
9.3,0.14225609756097557,0.18387661962116755,0.14225609756097557,1.0,0.0525,0.13,0.065,1.0,0.0525,0.045,0.05,0.135,0.04,0.065,0.1225,0.06,0.0475,0.0875,0.2875,0.055,0.0625,0.2125,0.0475,0.13,0.0625,0.06,0.055,0.0825,0.0625,0.0375,0.38,0.0525,0.035,0.0625,0.1625,0.0725,0.1,0.0425,0.1025,0.0925,0.5375,0.1175,0.05,0.0625,0.14,0.09,0.59,0.2825
9.4,0.14274390243902438,0.18415247930329762,0.14274390243902438,1.0,0.055,0.1275,0.0675,1.0,0.0525,0.045,0.05,0.135,0.04,0.065,0.125,0.065,0.0475,0.0875,0.2875,0.0575,0.0675,0.2075,0.045,0.1275,0.0625,0.0575,0.055,0.0825,0.0625,0.0375,0.38,0.0575,0.035,0.0625,0.16,0.075,0.1,0.045,0.1025,0.0925,0.5425,0.115,0.05,0.0625,0.14,0.09,0.5925,0.2875
9.5,0.1428048780487805,0.18467522177374054,0.1428048780487805,1.0,0.055,0.1275,0.0675,1.0,0.055,0.045,0.05,0.1375,0.0375,0.065,0.1275,0.0675,0.0475,0.0875,0.2825,0.0575,0.0675,0.21,0.05,0.1225,0.0625,0.0525,0.055,0.0825,0.0625,0.0375,0.38,0.055,0.035,0.0575,0.1575,0.075,0.095,0.0475,0.1025,0.095,0.5475,0.1175,0.05,0.0625,0.14,0.09,0.5975,0.2875
9.6,0.14225609756097565,0.1835438779849292,0.14225609756097565,0.995,0.055,0.13,0.0775,0.995,0.055,0.05,0.0475,0.1425,0.04,0.0675,0.13,0.0775,0.0475,0.09,0.2775,0.0575,0.0675,0.2075,0.0475,0.12,0.0625,0.0525,0.055,0.0775,0.06,0.0375,0.37,0.055,0.035,0.055,0.155,0.0825,0.09,0.045,0.1025,0.0975,0.545,0.115,0.05,0.0625,0.1325,0.0875,0.5975,0.29
9.7,0.14335365853658538,0.1842507981881125,0.14335365853658538,0.995,0.0525,0.13,0.0775,0.995,0.0575,0.0525,0.05,0.145,0.04,0.0675,0.1325,0.0825,0.05,0.0925,0.28,0.055,0.0675,0.215,0.0475,0.12,0.0625,0.05,0.055,0.0775,0.05,0.0375,0.375,0.055,0.04,0.055,0.155,0.0825,0.09,0.05,0.11,0.1,0.55,0.115,0.0475,0.06,0.13,0.0875,0.6025,0.29
9.8,0.14408536585365855,0.1852402494862933,0.14408536585365855,1.0,0.0525,0.1325,0.08,1.0,0.0625,0.0525,0.05,0.1475,0.0375,0.0675,0.135,0.08,0.0475,0.0925,0.275,0.055,0.07,0.2125,0.045,0.1225,0.065,0.05,0.0575,0.08,0.05,0.0375,0.365,0.055,0.0425,0.0525,0.155,0.0825,0.09,0.05,0.1075,0.1025,0.5575,0.1175,0.05,0.0625,0.1325,0.0875,0.61,0.295
9.9,0.14329268292682928,0.18431931385141262,0.14329268292682928,0.9925,0.0525,0.13,0.0775,0.9925,0.065,0.0525,0.05,0.15,0.0375,0.07,0.14,0.0825,0.045,0.0875,0.2725,0.055,0.0625,0.2125,0.045,0.1175,0.0675,0.0475,0.06,0.0775,0.0525,0.0425,0.355,0.05,0.0475,0.0525,0.15,0.0825,0.0875,0.055,0.11,0.1025,0.5625,0.11,0.0525,0.06,0.13,0.0875,0.615,0.28
10.0,0.1427439024390244,0.18546563424853135,0.1427439024390244,0.9975,0.0525,0.125,0.0725,0.9975,0.0675,0.0525,0.05,0.1475,0.0375,0.07,0.1425,0.0825,0.05,0.095,0.275,0.055,0.065,0.2025,0.045,0.1125,0.07,0.045,0.0625,0.0725,0.0525,0.04,0.35,0.05,0.0425,0.05,0.145,0.0825,0.0825,0.0525,0.1,0.105,0.57,0.11,0.0525,0.0575,0.125,0.0875,0.6175,0.2825
10.1,0.14365853658536581,0.18613371927600048,0.14365853658536581,1.0,0.0525,0.125,0.075,1.0,0.06,0.0525,0.0525,0.1425,0.0375,0.07,0.1475,0.0825,0.05,0.095,0.28,0.0575,0.065,0.2075,0.045,0.1175,0.075,0.0475,0.0625,0.0725,0.045,0.045,0.3575,0.0475,0.045,0.05,0.145,0.0875,0.0875,0.0525,0.1025,0.105,0.57,0.11,0.055,0.055,0.125,0.0825,0.62,0.2825
10.2,0.1423780487804878,0.18630877794042922,0.1423780487804878,0.9975,0.0525,0.12,0.0775,0.9975,0.0575,0.0525,0.05,0.1425,0.0375,0.07,0.1475,0.0825,0.05,0.095,0.275,0.055,0.065,0.2075,0.045,0.1125,0.0775,0.045,0.0625,0.0675,0.045,0.0425,0.3575,0.0425,0.045,0.0475,0.145,0.085,0.0825,0.0525,0.095,0.105,0.5725,0.11,0.055,0.055,0.12,0.0825,0.62,0.2825
10.3,0.1439634146341463,0.18675092288418915,0.1439634146341463,1.0,0.0525,0.125,0.0775,1.0,0.055,0.0525,0.0525,0.1425,0.04,0.07,0.1475,0.085,0.055,0.1,0.285,0.0575,0.065,0.215,0.0475,0.115,0.0775,0.045,0.06,0.0725,0.0425,0.045,0.3575,0.04,0.05,0.0525,0.145,0.0825,0.0825,0.0575,0.0975,0.105,0.575,0.1075,0.0575,0.0525,0.125,0.0825,0.6225,0.2825
10.4,0.14310975609756096,0.18669524900859027,0.14310975609756096,1.0,0.0525,0.125,0.075,1.0,0.0525,0.0525,0.0525,0.14,0.04,0.07,0.145,0.08,0.055,0.0975,0.28,0.0575,0.065,0.2125,0.0475,0.115,0.075,0.045,0.06,0.0725,0.0425,0.045,0.36,0.04,0.0475,0.05,0.145,0.08,0.0875,0.055,0.0975,0.105,0.5725,0.1075,0.0575,0.0475,0.125,0.0825,0.62,0.285
10.5,0.1422560975609756,0.18612856564918945,0.1422560975609756,1.0,0.0525,0.125,0.0725,1.0,0.0525,0.0525,0.0525,0.14,0.04,0.07,0.14,0.075,0.0575,0.1,0.2825,0.0575,0.0625,0.2125,0.0475,0.115,0.07,0.045,0.06,0.0725,0.0425,0.045,0.36,0.0375,0.0475,0.0475,0.1425,0.0825,0.0875,0.055,0.095,0.105,0.565,0.1075,0.0575,0.045,0.125,0.0825,0.615,0.2825
10.6,0.1424390243902439,0.18599476110908014,0.1424390243902439,1.0,0.0525,0.125,0.0725,1.0,0.0525,0.0525,0.0525,0.1425,0.04,0.0675,0.14,0.0725,0.06,0.1025,0.28,0.06,0.065,0.2125,0.045,0.1225,0.07,0.045,0.06,0.0725,0.0425,0.045,0.3575,0.035,0.0525,0.045,0.145,0.0825,0.0875,0.055,0.0925,0.105,0.565,0.1075,0.0575,0.045,0.125,0.0825,0.615,0.2825
10.7,0.1422560975609756,0.1856619706371462,0.1422560975609756,0.9975,0.0525,0.125,0.07,0.9975,0.0525,0.0575,0.05,0.145,0.04,0.0675,0.14,0.0625,0.06,0.0975,0.275,0.06,0.06,0.2125,0.045,0.125,0.07,0.0475,0.06,0.0725,0.0425,0.05,0.3575,0.0375,0.0525,0.0475,0.145,0.0775,0.09,0.0575,0.09,0.1075,0.5625,0.1075,0.0575,0.0475,0.125,0.0825,0.62,0.2775
10.8,0.14335365853658535,0.18512076624833643,0.14335365853658535,0.9975,0.0575,0.135,0.07,0.9975,0.055,0.0575,0.05,0.145,0.04,0.0675,0.1425,0.0625,0.065,0.1025,0.275,0.06,0.0625,0.215,0.045,0.135,0.07,0.0475,0.06,0.0725,0.04,0.0525,0.36,0.0375,0.0575,0.045,0.15,0.0775,0.0925,0.0625,0.095,0.105,0.56,0.1075,0.0575,0.05,0.125,0.0825,0.6175,0.275
10.9,0.14378048780487804,0.18435791834987353,0.14378048780487804,0.9925,0.0575,0.13,0.07,0.9925,0.055,0.0575,0.05,0.1475,0.0425,0.07,0.1425,0.0625,0.0575,0.095,0.2725,0.0625,0.065,0.2125,0.045,0.13,0.0675,0.0475,0.06,0.0725,0.04,0.0575,0.3625,0.035,0.0525,0.0475,0.145,0.08,0.0975,0.0625,0.1,0.1075,0.56,0.1175,0.0575,0.0575,0.1275,0.0825,0.615,0.2825
11.0,0.145,0.18630799964496242,0.145,1.0,0.0575,0.1375,0.0675,1.0,0.0575,0.055,0.05,0.1475,0.045,0.0675,0.14,0.0525,0.0575,0.095,0.275,0.0625,0.065,0.215,0.0475,0.1375,0.065,0.0475,0.0575,0.0725,0.0425,0.0675,0.37,0.0375,0.0575,0.05,0.1475,0.07,0.1025,0.0625,0.0975,0.1075,0.565,0.115,0.055,0.0575,0.13,0.085,0.6225,0.29
11.1,0.14500000000000002,0.1862032393420249,0.14500000000000002,1.0,0.0575,0.1375,0.0675,1.0,0.0575,0.055,0.05,0.1475,0.045,0.0675,0.1375,0.05,0.0575,0.095,0.275,0.0625,0.065,0.2175,0.0475,0.14,0.065,0.05,0.0575,0.0725,0.0425,0.065,0.365,0.0375,0.0575,0.05,0.15,0.0725,0.1,0.065,0.0975,0.105,0.5625,0.115,0.055,0.0575,0.1325,0.085,0.625,0.29
11.2,0.14353658536585365,0.1853597158804121,0.14353658536585365,0.995,0.055,0.135,0.0675,0.995,0.0575,0.0525,0.0475,0.15,0.0425,0.0675,0.135,0.05,0.055,0.09,0.2675,0.06,0.065,0.2125,0.0475,0.1375,0.065,0.0475,0.0575,0.07,0.0425,0.065,0.36,0.0375,0.0575,0.05,0.1525,0.0775,0.0975,0.0625,0.0925,0.105,0.5625,0.1125,0.0525,0.0575,0.13,0.09,0.6225,0.285
11.3,0.14359756097560977,0.1858509178147575,0.14359756097560977,0.995,0.055,0.1375,0.0675,0.995,0.055,0.055,0.0475,0.1525,0.045,0.065,0.1375,0.045,0.0525,0.0875,0.2675,0.0625,0.0675,0.21,0.0525,0.1425,0.065,0.05,0.0575,0.0675,0.0425,0.06,0.365,0.0375,0.0525,0.055,0.1525,0.07,0.1,0.06,0.085,0.105,0.565,0.115,0.05,0.0625,0.1275,0.09,0.6225,0.29
11.4,0.14451219512195124,0.1869216442009624,0.14451219512195124,1.0,0.055,0.1375,0.0675,1.0,0.055,0.055,0.045,0.15,0.045,0.0675,0.1375,0.0425,0.0525,0.09,0.2725,0.0675,0.065,0.21,0.0525,0.145,0.0625,0.05,0.0575,0.07,0.0425,0.06,0.365,0.0375,0.0575,0.055,0.155,0.0725,0.1,0.06,0.09,0.105,0.5675,0.115,0.0475,0.065,0.1275,0.0925,0.63,0.2875
11.5,0.14420731707317078,0.18727949556386456,0.14420731707317078,1.0,0.0525,0.14,0.0675,1.0,0.0575,0.055,0.0475,0.15,0.0475,0.0675,0.14,0.0425,0.05,0.0875,0.275,0.065,0.065,0.2075,0.0525,0.1425,0.065,0.05,0.0575,0.0675,0.0425,0.0575,0.365,0.0375,0.0525,0.0575,0.155,0.0775,0.1,0.0525,0.085,0.105,0.57,0.115,0.045,0.065,0.125,0.0925,0.63,0.29
11.6,0.1437804878048781,0.1874590377623507,0.1437804878048781,1.0,0.0525,0.14,0.0675,1.0,0.0575,0.055,0.0425,0.1525,0.05,0.0675,0.14,0.04,0.0475,0.085,0.27,0.0625,0.0625,0.2075,0.0525,0.14,0.065,0.0525,0.06,0.0675,0.0425,0.0575,0.3575,0.0375,0.05,0.06,0.1525,0.075,0.1,0.0525,0.085,0.105,0.5725,0.115,0.045,0.0625,0.125,0.0975,0.6325,0.2925
11.7,0.14402439024390246,0.18795017344445022,0.14402439024390246,1.0,0.0525,0.1375,0.0675,1.0,0.0575,0.0525,0.0425,0.15,0.05,0.07,0.1425,0.04,0.045,0.0825,0.2725,0.0625,0.0625,0.2125,0.06,0.1375,0.0675,0.0525,0.0625,0.0675,0.0425,0.055,0.3575,0.04,0.0475,0.06,0.1525,0.075,0.0975,0.0525,0.0875,0.1075,0.58,0.11,0.045,0.06,0.1275,0.0975,0.635,0.285
11.8,0.14408536585365853,0.18770416209761728,0.14408536585365853,0.995,0.055,0.1325,0.07,0.995,0.0575,0.05,0.04,0.15,0.05,0.0725,0.145,0.0475,0.0425,0.08,0.2675,0.06,0.065,0.2125,0.06,0.1325,0.07,0.05,0.0625,0.0675,0.045,0.0575,0.3525,0.035,0.045,0.06,0.1525,0.0775,0.1,0.055,0.0975,0.11,0.5875,0.105,0.045,0.06,0.1275,0.1,0.64,0.2775
11.9,0.14414634146341462,0.1896543789692841,0.14414634146341462,1.0,0.0525,0.1325,0.07,1.0,0.06,0.0525,0.0425,0.155,0.0525,0.075,0.145,0.0475,0.0425,0.075,0.26,0.0625,0.065,0.2025,0.0575,0.1325,0.07,0.05,0.065,0.0675,0.0425,0.0575,0.35,0.0325,0.0425,0.0525,0.155,0.0725,0.1025,0.05,0.0925,0.115,0.5975,0.1025,0.0475,0.0575,0.125,0.1,0.6525,0.2825
12.0,0.14225609756097563,0.18965775086407555,0.14225609756097563,1.0,0.05,0.1275,0.07,1.0,0.0525,0.0475,0.0425,0.1425,0.055,0.0725,0.1375,0.0475,0.045,0.0775,0.2625,0.06,0.0675,0.2025,0.0575,0.1275,0.07,0.05,0.065,0.065,0.0425,0.05,0.3525,0.035,0.035,0.0525,0.155,0.075,0.0975,0.045,0.085,0.1125,0.59,0.1025,0.045,0.0575,0.12,0.0975,0.65,0.285
12.1,0.14146341463414636,0.19018522390874198,0.14146341463414636,1.0,0.05,0.12,0.07,1.0,0.055,0.0475,0.0425,0.1475,0.05,0.0725,0.1375,0.045,0.045,0.0775,0.2675,0.06,0.065,0.2075,0.0625,0.115,0.07,0.05,0.0675,0.065,0.04,0.0475,0.3575,0.035,0.03,0.055,0.145,0.0725,0.095,0.045,0.085,0.1125,0.5925,0.0975,0.0475,0.0525,0.12,0.0975,0.6525,0.27
12.2,0.14237804878048776,0.19001119288237467,0.14237804878048776,1.0,0.05,0.1225,0.0725,1.0,0.055,0.0475,0.0425,0.145,0.05,0.0725,0.1375,0.0525,0.05,0.085,0.2725,0.06,0.0625,0.2125,0.065,0.1175,0.0725,0.0525,0.0675,0.065,0.04,0.045,0.36,0.035,0.0275,0.055,0.1425,0.0775,0.0975,0.045,0.09,0.1125,0.5925,0.095,0.05,0.05,0.1225,0.0975,0.6525,0.265
12.3,0.14097560975609758,0.18964816433170215,0.14097560975609758,0.995,0.05,0.1175,0.07,0.995,0.055,0.045,0.0475,0.1425,0.045,0.075,0.1375,0.05,0.05,0.085,0.275,0.0575,0.065,0.21,0.065,0.115,0.07,0.0525,0.07,0.06,0.0375,0.0425,0.355,0.035,0.0275,0.0525,0.1375,0.0725,0.095,0.045,0.0875,0.115,0.5925,0.0925,0.05,0.045,0.1175,0.0975,0.6525,0.2625
12.4,0.140609756097561,0.19097134608828042,0.140609756097561,1.0,0.0525,0.1175,0.07,1.0,0.0525,0.045,0.0475,0.1425,0.045,0.0725,0.1375,0.0525,0.0525,0.0875,0.2725,0.0525,0.065,0.2025,0.065,0.115,0.0675,0.0525,0.0725,0.06,0.0375,0.04,0.3525,0.035,0.025,0.05,0.14,0.07,0.0925,0.045,0.085,0.115,0.5975,0.09,0.0525,0.0425,0.1175,0.0975,0.66,0.26
12.5,0.13945121951219516,0.18961410763860886,0.13945121951219516,0.995,0.0475,0.1175,0.0725,0.995,0.0475,0.045,0.0475,0.14,0.0425,0.0725,0.1375,0.0575,0.0525,0.085,0.27,0.055,0.0625,0.2,0.065,0.1175,0.0675,0.055,0.0725,0.06,0.0375,0.04,0.3475,0.0325,0.025,0.0475,0.14,0.075,0.0925,0.0425,0.0825,0.115,0.5925,0.0875,0.055,0.04,0.115,0.095,0.655,0.2525
12.6,0.13993902439024397,0.19043794825515623,0.13993902439024397,0.995,0.05,0.12,0.0725,0.995,0.0475,0.0475,0.05,0.14,0.0375,0.0725,0.1375,0.055,0.05,0.08,0.2725,0.055,0.06,0.2,0.0625,0.12,0.0675,0.0575,0.0775,0.06,0.0375,0.0425,0.3425,0.0325,0.0275,0.05,0.1425,0.075,0.0925,0.0425,0.085,0.115,0.6,0.0875,0.055,0.0425,0.115,0.0975,0.665,0.245
12.7,0.13939024390243906,0.1903212788237596,0.13939024390243906,0.995,0.05,0.125,0.07,0.995,0.045,0.0475,0.0525,0.135,0.0375,0.07,0.1375,0.0525,0.05,0.08,0.2775,0.0625,0.06,0.1925,0.0575,0.125,0.0675,0.0575,0.075,0.06,0.0375,0.04,0.3375,0.0325,0.0325,0.0475,0.1475,0.075,0.09,0.04,0.08,0.115,0.5975,0.0875,0.055,0.0425,0.115,0.095,0.665,0.245
12.8,0.13859756097560974,0.19055202924059794,0.13859756097560974,0.995,0.0475,0.13,0.065,0.995,0.0475,0.0475,0.0525,0.1375,0.04,0.0675,0.13,0.0425,0.05,0.08,0.275,0.0625,0.06,0.1925,0.0575,0.13,0.0625,0.06,0.075,0.06,0.0375,0.04,0.3375,0.0325,0.035,0.045,0.15,0.065,0.0925,0.04,0.0775,0.115,0.595,0.0825,0.055,0.0375,0.115,0.095,0.6675,0.2425
12.9,0.13993902439024392,0.1908944669221379,0.13993902439024392,1.0,0.05,0.125,0.065,1.0,0.05,0.0475,0.0525,0.1375,0.04,0.0725,0.13,0.045,0.0525,0.0825,0.2775,0.0625,0.0625,0.2025,0.06,0.125,0.0625,0.06,0.075,0.0625,0.0375,0.04,0.335,0.035,0.0375,0.0425,0.1475,0.065,0.085,0.0425,0.085,0.12,0.595,0.0875,0.0575,0.0375,0.1175,0.0925,0.6675,0.25
13.0,0.13945121951219513,0.19049319189159852,0.13945121951219513,0.9975,0.05,0.1225,0.065,0.9975,0.05,0.045,0.0525,0.135,0.04,0.0725,0.13,0.045,0.0525,0.0825,0.2775,0.0625,0.0625,0.2025,0.0575,0.1225,0.0625,0.0575,0.0725,0.0625,0.0375,0.04,0.34,0.0375,0.0375,0.0425,0.1475,0.065,0.0875,0.0425,0.0825,0.1225,0.5925,0.085,0.0575,0.0375,0.115,0.0925,0.665,0.2475
13.1,0.1399390243902439,0.19184715699699248,0.1399390243902439,1.0,0.0525,0.1225,0.065,1.0,0.0525,0.045,0.055,0.14,0.0425,0.0725,0.135,0.0375,0.0525,0.0825,0.2825,0.0625,0.065,0.2025,0.055,0.12,0.065,0.0575,0.0725,0.0625,0.035,0.0375,0.34,0.04,0.035,0.045,0.145,0.0575,0.0875,0.0425,0.0825,0.1225,0.5975,0.0825,0.055,0.0375,0.115,0.095,0.6725,0.2525
13.2,0.14097560975609752,0.19218804153108754,0.14097560975609752,1.0,0.0525,0.1225,0.07,1.0,0.0525,0.045,0.055,0.1425,0.0425,0.075,0.14,0.04,0.0525,0.0825,0.285,0.0625,0.065,0.2025,0.055,0.115,0.07,0.0575,0.0725,0.0625,0.035,0.04,0.3425,0.0425,0.035,0.045,0.14,0.06,0.0875,0.0425,0.0875,0.1225,0.6025,0.085,0.0575,0.0375,0.1175,0.095,0.675,0.255
13.3,0.14152439024390245,0.19139481449316256,0.14152439024390245,1.0,0.0525,0.125,0.07,1.0,0.0525,0.045,0.0525,0.14,0.0425,0.07,0.14,0.045,0.0525,0.0825,0.285,0.0625,0.065,0.205,0.055,0.115,0.07,0.0575,0.0725,0.0675,0.035,0.0425,0.345,0.045,0.035,0.045,0.14,0.0675,0.09,0.045,0.0925,0.1175,0.6,0.085,0.0575,0.0375,0.125,0.095,0.6675,0.2575
13.4,0.14134146341463413,0.19193264313372396,0.14134146341463413,1.0,0.05,0.125,0.0675,1.0,0.055,0.045,0.055,0.1425,0.0425,0.07,0.14,0.045,0.05,0.0825,0.29,0.0625,0.0625,0.2,0.055,0.1175,0.0675,0.06,0.0725,0.0675,0.0375,0.0425,0.3425,0.0425,0.035,0.045,0.14,0.0675,0.0875,0.04,0.0875,0.1175,0.605,0.085,0.055,0.0375,0.125,0.095,0.67,0.255
13.5,0.14219512195121953,0.1914571810388072,0.14219512195121953,1.0,0.05,0.125,0.07,1.0,0.0575,0.045,0.055,0.15,0.045,0.07,0.1375,0.05,0.05,0.0825,0.295,0.0625,0.0625,0.2025,0.055,0.115,0.065,0.0575,0.0725,0.0675,0.0375,0.0425,0.3425,0.0475,0.035,0.05,0.1375,0.0775,0.0875,0.0425,0.09,0.1175,0.6025,0.085,0.055,0.0375,0.125,0.095,0.6675,0.2575
13.6,0.1425609756097561,0.192111571848425,0.1425609756097561,1.0,0.055,0.1275,0.07,1.0,0.06,0.045,0.055,0.15,0.0425,0.07,0.14,0.0475,0.05,0.0825,0.2925,0.06,0.0625,0.205,0.055,0.1125,0.065,0.055,0.0725,0.0675,0.0375,0.04,0.345,0.05,0.03,0.055,0.14,0.075,0.0875,0.0425,0.09,0.1175,0.6075,0.09,0.055,0.0425,0.1275,0.095,0.6725,0.255
13.7,0.1429268292682927,0.19230620783758717,0.1429268292682927,1.0,0.0525,0.13,0.0675,1.0,0.0625,0.0425,0.0575,0.1475,0.0425,0.0725,0.14,0.0425,0.05,0.08,0.2975,0.0625,0.0625,0.215,0.055,0.11,0.065,0.055,0.0725,0.0675,0.0375,0.0425,0.3525,0.05,0.03,0.055,0.14,0.0675,0.0875,0.0475,0.0975,0.1175,0.6075,0.0875,0.0525,0.04,0.13,0.095,0.67,0.2525
13.8,0.14280487804878045,0.19204467461862973,0.14280487804878045,0.9975,0.0525,0.135,0.0675,0.9975,0.065,0.0425,0.055,0.1525,0.045,0.07,0.14,0.0375,0.0525,0.0825,0.295,0.06,0.0625,0.2175,0.0575,0.11,0.065,0.0525,0.0725,0.0675,0.0375,0.0425,0.3525,0.05,0.03,0.055,0.1375,0.0675,0.09,0.0475,0.1,0.1125,0.6075,0.085,0.05,0.04,0.135,0.095,0.67,0.25
13.9,0.14341463414634145,0.19156110603882345,0.14341463414634145,0.995,0.055,0.135,0.07,0.995,0.065,0.0425,0.06,0.1525,0.045,0.07,0.14,0.035,0.055,0.085,0.3,0.0625,0.06,0.225,0.0575,0.11,0.065,0.05,0.0725,0.075,0.035,0.0425,0.3525,0.0525,0.0325,0.055,0.135,0.0675,0.0875,0.05,0.1,0.11,0.6075,0.085,0.055,0.04,0.1425,0.0925,0.6675,0.2475
14.0,0.1446951219512195,0.19092776944943432,0.1446951219512195,0.9925,0.055,0.135,0.07,0.9925,0.0675,0.0425,0.06,0.1525,0.0425,0.07,0.1425,0.0375,0.0625,0.0925,0.31,0.0675,0.0575,0.23,0.06,0.1175,0.065,0.055,0.08,0.0725,0.035,0.0425,0.36,0.0525,0.035,0.0575,0.135,0.0675,0.09,0.05,0.1025,0.1075,0.6075,0.085,0.0525,0.04,0.14,0.0925,0.6625,0.24
14.1,0.1454268292682927,0.19250665370115067,0.1454268292682927,1.0,0.055,0.1375,0.0675,1.0,0.0675,0.0425,0.06,0.155,0.045,0.065,0.1425,0.0375,0.0625,0.0925,0.3075,0.0675,0.0575,0.23,0.0575,0.12,0.065,0.055,0.08,0.075,0.035,0.045,0.36,0.0525,0.0375,0.0575,0.1375,0.0675,0.09,0.05,0.0975,0.11,0.6125,0.085,0.0525,0.04,0.14,0.0925,0.67,0.245
14.2,0.14493902439024392,0.1921583821823826,0.14493902439024392,1.0,0.055,0.135,0.07,1.0,0.065,0.0425,0.0625,0.15,0.0475,0.065,0.14,0.04,0.0625,0.095,0.3125,0.0675,0.0575,0.2225,0.0575,0.125,0.0625,0.055,0.08,0.07,0.035,0.045,0.3525,0.05,0.0425,0.0575,0.1375,0.07,0.09,0.05,0.095,0.1075,0.6075,0.0875,0.05,0.04,0.135,0.0925,0.6725,0.245
14.3,0.14567073170731712,0.1913805941737403,0.14567073170731712,0.9975,0.055,0.1375,0.075,0.9975,0.065,0.0425,0.065,0.1475,0.0475,0.065,0.1375,0.0375,0.0625,0.1,0.315,0.075,0.055,0.2275,0.0575,0.1275,0.0625,0.0575,0.08,0.075,0.035,0.045,0.345,0.0475,0.045,0.06,0.1375,0.07,0.0825,0.055,0.1025,0.1125,0.6075,0.0875,0.05,0.04,0.1425,0.0925,0.67,0.245
14.4,0.1457926829268293,0.19148285205048324,0.1457926829268293,0.995,0.055,0.14,0.075,0.995,0.07,0.0425,0.065,0.145,0.0475,0.06,0.14,0.0375,0.065,0.1025,0.3175,0.075,0.055,0.2225,0.06,0.1275,0.06,0.0575,0.08,0.0775,0.035,0.045,0.3425,0.045,0.045,0.0625,0.14,0.07,0.08,0.055,0.0975,0.11,0.6125,0.085,0.05,0.0425,0.145,0.095,0.6725,0.245
14.5,0.14457317073170733,0.19292588495344115,0.14457317073170733,1.0,0.0575,0.1375,0.0725,1.0,0.07,0.04,0.065,0.1375,0.045,0.0575,0.14,0.03,0.07,0.1075,0.315,0.0725,0.0575,0.2125,0.0575,0.1275,0.0575,0.055,0.0825,0.0775,0.0325,0.04,0.34,0.04,0.045,0.0575,0.1425,0.0625,0.0775,0.0575,0.0875,0.1075,0.615,0.0875,0.0475,0.0425,0.145,0.095,0.6775,0.25
14.6,0.14420731707317078,0.19294764156497182,0.14420731707317078,0.9925,0.055,0.1325,0.0725,0.9925,0.0675,0.0425,0.0725,0.1325,0.045,0.0575,0.1375,0.0325,0.07,0.1075,0.325,0.0725,0.055,0.2025,0.055,0.1275,0.055,0.0525,0.0825,0.08,0.0325,0.04,0.3325,0.0375,0.05,0.06,0.145,0.0625,0.0775,0.0575,0.0825,0.1075,0.6225,0.0825,0.0475,0.04,0.15,0.095,0.685,0.24
14.7,0.14506097560975614,0.19436692717521667,0.14506097560975614,1.0,0.0525,0.135,0.075,1.0,0.065,0.045,0.07,0.135,0.045,0.0625,0.135,0.0375,0.0725,0.11,0.33,0.075,0.0525,0.2025,0.055,0.125,0.055,0.05,0.08,0.085,0.0325,0.04,0.33,0.04,0.05,0.055,0.145,0.07,0.0775,0.055,0.09,0.1075,0.6275,0.0775,0.0475,0.035,0.155,0.095,0.69,0.24
14.8,0.14426829268292685,0.1939231082709725,0.14426829268292685,0.9975,0.0525,0.135,0.075,0.9975,0.0625,0.045,0.0725,0.1375,0.045,0.0625,0.135,0.03,0.07,0.115,0.33,0.075,0.0525,0.2025,0.0525,0.125,0.055,0.05,0.08,0.085,0.0325,0.04,0.325,0.04,0.0475,0.055,0.1425,0.06,0.08,0.0525,0.0875,0.1075,0.625,0.0775,0.05,0.035,0.155,0.095,0.6875,0.24
14.9,0.1453048780487805,0.19479053409066518,0.1453048780487805,1.0,0.0525,0.135,0.075,1.0,0.0625,0.045,0.075,0.14,0.0425,0.0625,0.135,0.035,0.07,0.115,0.33,0.075,0.0525,0.21,0.055,0.1225,0.055,0.05,0.08,0.0825,0.0325,0.0425,0.325,0.045,0.0475,0.0525,0.14,0.06,0.08,0.055,0.0875,0.1125,0.6325,0.08,0.05,0.0375,0.1525,0.0975,0.6925,0.24
15.0,0.14414634146341462,0.19450814278216305,0.14414634146341462,1.0,0.05,0.135,0.0725,1.0,0.0625,0.0425,0.07,0.1375,0.04,0.0625,0.135,0.0375,0.07,0.1175,0.325,0.0725,0.055,0.205,0.055,0.125,0.055,0.05,0.0775,0.0825,0.0325,0.04,0.3225,0.045,0.0475,0.05,0.1425,0.06,0.08,0.0475,0.0825,0.1125,0.63,0.0775,0.05,0.0375,0.15,0.0975,0.69,0.2375
15.1,0.14420731707317072,0.1944539250589987,0.14420731707317072,1.0,0.05,0.135,0.0725,1.0,0.0625,0.0425,0.07,0.1375,0.0375,0.0625,0.135,0.035,0.07,0.1175,0.3275,0.0725,0.055,0.21,0.0575,0.1225,0.055,0.05,0.075,0.0825,0.0325,0.04,0.325,0.0475,0.045,0.0525,0.1425,0.0575,0.08,0.05,0.085,0.1125,0.6275,0.0775,0.05,0.0375,0.15,0.1,0.69,0.2325
15.2,0.14371951219512194,0.1936232842522823,0.14371951219512194,0.9975,0.0525,0.1325,0.07,0.9975,0.065,0.045,0.0675,0.1425,0.0375,0.065,0.1325,0.0375,0.07,0.1175,0.3225,0.0675,0.055,0.21,0.0575,0.12,0.055,0.0475,0.0725,0.0825,0.035,0.0375,0.325,0.0475,0.0425,0.0525,0.14,0.055,0.08,0.0525,0.0875,0.1125,0.6225,0.0775,0.05,0.0375,0.15,0.1,0.6875,0.2325
15.3,0.1436585365853659,0.19376020630944307,0.1436585365853659,1.0,0.0525,0.1325,0.0675,1.0,0.0675,0.045,0.0675,0.145,0.035,0.0675,0.1325,0.0375,0.0675,0.1125,0.3175,0.065,0.0575,0.2175,0.0575,0.11,0.0525,0.045,0.075,0.0775,0.035,0.045,0.3275,0.045,0.0425,0.0525,0.14,0.055,0.075,0.06,0.0925,0.1125,0.6225,0.0775,0.0475,0.0375,0.145,0.105,0.685,0.235
15.4,0.14256097560975614,0.19349992736880062,0.14256097560975614,0.995,0.0475,0.1325,0.0675,0.995,0.0675,0.045,0.0625,0.145,0.035,0.0675,0.1325,0.035,0.0625,0.1075,0.31,0.0625,0.06,0.22,0.0575,0.1075,0.0525,0.04,0.075,0.075,0.035,0.045,0.33,0.045,0.0425,0.0475,0.1425,0.0525,0.075,0.06,0.0925,0.115,0.6225,0.075,0.0475,0.0375,0.1425,0.1025,0.685,0.235
15.5,0.14237804878048782,0.1940289700675161,0.14237804878048782,0.9975,0.05,0.13,0.0675,0.9975,0.065,0.045,0.0575,0.1475,0.035,0.0675,0.13,0.035,0.0625,0.1075,0.3,0.06,0.06,0.2225,0.06,0.1075,0.0525,0.04,0.075,0.0725,0.04,0.0425,0.34,0.05,0.04,0.05,0.145,0.0525,0.0775,0.055,0.0875,0.115,0.6225,0.0725,0.0475,0.04,0.135,0.105,0.6875,0.2325
15.6,0.14176829268292684,0.19474282909121693,0.14176829268292684,1.0,0.05,0.13,0.07,1.0,0.065,0.045,0.0525,0.1525,0.035,0.07,0.13,0.035,0.06,0.1075,0.2975,0.0625,0.0625,0.21,0.0575,0.105,0.055,0.04,0.07,0.075,0.0425,0.0375,0.335,0.045,0.035,0.0525,0.1425,0.0575,0.08,0.05,0.085,0.1175,0.6225,0.07,0.045,0.0375,0.14,0.105,0.695,0.23
15.7,0.14243902439024392,0.19391386682078635,0.14243902439024392,1.0,0.0525,0.135,0.07,1.0,0.065,0.045,0.0525,0.15,0.035,0.07,0.135,0.035,0.0625,0.1125,0.3,0.065,0.065,0.215,0.06,0.1025,0.055,0.04,0.07,0.075,0.045,0.04,0.34,0.045,0.035,0.0525,0.14,0.0575,0.08,0.0525,0.09,0.115,0.6175,0.075,0.0425,0.04,0.1425,0.1,0.6875,0.2325
15.8,0.1427439024390244,0.19338275965326493,0.1427439024390244,0.9975,0.0525,0.14,0.07,0.9975,0.065,0.04,0.0525,0.145,0.035,0.07,0.14,0.035,0.0625,0.11,0.2975,0.065,0.065,0.215,0.06,0.105,0.0575,0.04,0.07,0.075,0.05,0.0425,0.3375,0.0425,0.0375,0.0525,0.14,0.0575,0.08,0.055,0.095,0.115,0.6175,0.0775,0.0425,0.0425,0.1425,0.1,0.6875,0.235
15.9,0.14164634146341465,0.193467721007875,0.14164634146341465,0.995,0.05,0.14,0.0675,0.995,0.0675,0.04,0.05,0.145,0.035,0.0675,0.14,0.025,0.06,0.105,0.305,0.0675,0.065,0.2125,0.0575,0.105,0.0575,0.0425,0.0675,0.075,0.0525,0.0425,0.3375,0.0375,0.0375,0.055,0.14,0.05,0.0725,0.055,0.0925,0.115,0.615,0.075,0.0425,0.04,0.145,0.1,0.6875,0.23
16.0,0.14219512195121953,0.19422625974930532,0.14219512195121953,1.0,0.0475,0.14,0.0675,1.0,0.0675,0.04,0.0475,0.145,0.035,0.0675,0.14,0.0225,0.06,0.1025,0.3025,0.07,0.0675,0.21,0.055,0.1075,0.0575,0.0425,0.0675,0.075,0.0575,0.0425,0.3375,0.0375,0.0375,0.0575,0.14,0.0475,0.0725,0.055,0.0925,0.115,0.6175,0.0775,0.0475,0.04,0.1475,0.1,0.69,0.235
16.1,0.14243902439024395,0.19436928001534176,0.14243902439024395,0.9975,0.0475,0.14,0.0675,0.9975,0.0675,0.04,0.0475,0.1475,0.035,0.0675,0.1425,0.0175,0.0625,0.105,0.305,0.07,0.0675,0.2075,0.0525,0.11,0.06,0.0425,0.0675,0.0775,0.06,0.0425,0.34,0.035,0.035,0.06,0.14,0.0425,0.0775,0.0575,0.09,0.115,0.62,0.075,0.0475,0.04,0.15,0.1,0.6925,0.23
16.2,0.14152439024390245,0.1932030068196155,0.14152439024390245,0.995,0.0475,0.14,0.0675,0.995,0.0625,0.0425,0.045,0.145,0.035,0.0675,0.1425,0.015,0.06,0.1025,0.3,0.0675,0.065,0.2075,0.055,0.1075,0.06,0.0425,0.0675,0.0725,0.0575,0.0425,0.345,0.035,0.035,0.0625,0.14,0.0475,0.08,0.0575,0.085,0.115,0.6125,0.08,0.0475,0.045,0.1425,0.1,0.685,0.23
16.3,0.14164634146341465,0.19331637925073786,0.14164634146341465,0.9975,0.05,0.1375,0.0675,0.9975,0.0625,0.0375,0.045,0.1425,0.035,0.065,0.145,0.0175,0.055,0.1025,0.305,0.075,0.065,0.2075,0.055,0.1125,0.06,0.045,0.0675,0.07,0.0525,0.045,0.3475,0.0375,0.035,0.065,0.14,0.05,0.0825,0.055,0.08,0.1125,0.61,0.08,0.05,0.045,0.1375,0.1,0.6825,0.2325
16.4,0.14207317073170736,0.19372700684888874,0.14207317073170736,1.0,0.05,0.1375,0.065,1.0,0.0625,0.0375,0.045,0.1425,0.035,0.065,0.145,0.0175,0.055,0.1025,0.305,0.075,0.0625,0.2075,0.055,0.115,0.06,0.0475,0.065,0.07,0.0525,0.045,0.3475,0.0375,0.035,0.065,0.14,0.05,0.0875,0.055,0.08,0.115,0.61,0.085,0.05,0.045,0.1375,0.0975,0.685,0.235
16.5,0.14146341463414636,0.19265235941545136,0.14146341463414636,0.9975,0.0525,0.1375,0.065,0.9975,0.0625,0.0375,0.045,0.14,0.035,0.0625,0.145,0.02,0.055,0.1,0.3025,0.075,0.065,0.205,0.055,0.115,0.06,0.0475,0.065,0.07,0.0525,0.045,0.345,0.035,0.035,0.065,0.145,0.0575,0.0875,0.055,0.0775,0.115,0.605,0.08,0.05,0.045,0.1375,0.095,0.68,0.2325
16.6,0.14140243902439026,0.1923974614301937,0.14140243902439026,0.995,0.05,0.1425,0.065,0.995,0.065,0.0375,0.045,0.1425,0.035,0.06,0.1425,0.0175,0.0525,0.0975,0.2975,0.075,0.0625,0.2075,0.0575,0.12,0.06,0.05,0.065,0.07,0.05,0.0425,0.3475,0.0375,0.035,0.0625,0.145,0.055,0.0925,0.05,0.0825,0.1175,0.605,0.08,0.05,0.045,0.1425,0.095,0.68,0.2275
16.7,0.14060975609756096,0.19284754854026348,0.14060975609756096,0.9975,0.05,0.1375,0.065,0.9975,0.0625,0.035,0.0475,0.14,0.035,0.0575,0.1375,0.0175,0.0525,0.0975,0.2975,0.0725,0.0625,0.205,0.055,0.1225,0.0575,0.05,0.065,0.07,0.0525,0.04,0.3475,0.0375,0.035,0.0625,0.1475,0.055,0.09,0.0475,0.075,0.1175,0.605,0.0825,0.05,0.045,0.14,0.0925,0.68,0.225
16.8,0.14067073170731706,0.1927987263948199,0.14067073170731706,1.0,0.05,0.1325,0.065,1.0,0.065,0.035,0.0475,0.145,0.035,0.055,0.1325,0.02,0.0525,0.1,0.3,0.075,0.065,0.205,0.055,0.125,0.0575,0.05,0.065,0.07,0.05,0.0375,0.35,0.0375,0.0325,0.0625,0.15,0.0575,0.0925,0.045,0.0725,0.1175,0.6,0.0825,0.05,0.045,0.1375,0.09,0.6775,0.225
16.9,0.13865853658536584,0.19246483489466104,0.13865853658536584,0.995,0.0475,0.13,0.065,0.995,0.0625,0.035,0.0475,0.1475,0.0375,0.055,0.13,0.0225,0.05,0.095,0.29,0.0725,0.0575,0.1975,0.055,0.12,0.055,0.0475,0.065,0.0725,0.045,0.035,0.345,0.0375,0.03,0.0525,0.1475,0.06,0.0925,0.0425,0.065,0.12,0.6025,0.0825,0.05,0.0425,0.135,0.09,0.6775,0.2225
17.0,0.1385975609756098,0.19303895788763428,0.1385975609756098,0.9975,0.0475,0.1325,0.0625,0.9975,0.06,0.0375,0.045,0.145,0.0375,0.055,0.135,0.0225,0.0475,0.0925,0.28,0.065,0.0575,0.1975,0.055,0.1225,0.055,0.0475,0.065,0.075,0.04,0.04,0.345,0.0375,0.035,0.055,0.1525,0.06,0.0925,0.045,0.0625,0.12,0.605,0.08,0.0525,0.04,0.1325,0.09,0.6825,0.22
17.1,0.13908536585365858,0.19307662773128614,0.13908536585365858,1.0,0.0475,0.1325,0.06,1.0,0.06,0.0375,0.045,0.145,0.04,0.06,0.14,0.0225,0.0475,0.09,0.275,0.06,0.0575,0.2,0.0575,0.12,0.06,0.0475,0.065,0.075,0.0375,0.0425,0.3475,0.0375,0.035,0.0525,0.1525,0.06,0.0925,0.0475,0.065,0.125,0.605,0.08,0.0525,0.04,0.1325,0.0875,0.68,0.225
17.2,0.13981707317073172,0.19373525926923213,0.13981707317073172,1.0,0.0475,0.1375,0.065,1.0,0.06,0.0375,0.045,0.145,0.04,0.06,0.145,0.025,0.0475,0.0875,0.27,0.06,0.0575,0.195,0.0575,0.1225,0.0625,0.0525,0.0675,0.075,0.0375,0.0425,0.3425,0.0375,0.035,0.05,0.15,0.065,0.0925,0.045,0.065,0.125,0.6125,0.085,0.05,0.04,0.1375,0.0875,0.6875,0.2325
17.3,0.14079268292682925,0.19363534296202597,0.14079268292682925,1.0,0.0475,0.1375,0.0675,1.0,0.06,0.0375,0.0475,0.145,0.04,0.065,0.15,0.0275,0.045,0.0825,0.27,0.06,0.0575,0.1925,0.055,0.125,0.0675,0.0525,0.0675,0.0725,0.0375,0.045,0.3375,0.0375,0.035,0.0525,0.15,0.0675,0.09,0.045,0.075,0.13,0.615,0.09,0.05,0.045,0.1375,0.0875,0.69,0.235
17.4,0.14164634146341462,0.19297779614165012,0.14164634146341462,0.995,0.05,0.14,0.0675,0.995,0.06,0.0375,0.0475,0.145,0.04,0.065,0.15,0.0325,0.045,0.0825,0.27,0.06,0.0575,0.1925,0.0525,0.13,0.0675,0.055,0.0675,0.0725,0.035,0.05,0.3375,0.0375,0.04,0.055,0.1475,0.0625,0.09,0.05,0.0825,0.1275,0.6175,0.095,0.05,0.0475,0.14,0.0875,0.69,0.24
17.5,0.14298780487804877,0.1941956672234275,0.14298780487804877,1.0,0.05,0.1425,0.0675,1.0,0.0575,0.0375,0.0475,0.145,0.0425,0.065,0.15,0.035,0.045,0.08,0.27,0.055,0.0575,0.1925,0.05,0.13,0.0675,0.0575,0.0675,0.0725,0.0325,0.0525,0.3425,0.04,0.0375,0.06,0.1475,0.0675,0.0975,0.05,0.085,0.13,0.6225,0.1,0.05,0.05,0.1425,0.0875,0.695,0.2475
17.6,0.14432926829268297,0.1944434085881212,0.14432926829268297,1.0,0.0525,0.1425,0.0675,1.0,0.0575,0.04,0.05,0.1425,0.0425,0.065,0.15,0.035,0.045,0.08,0.2725,0.055,0.0575,0.2,0.0525,0.1325,0.0675,0.0525,0.0725,0.075,0.03,0.06,0.3475,0.0425,0.04,0.06,0.1475,0.065,0.1,0.05,0.0875,0.1325,0.6275,0.1025,0.0525,0.0525,0.1425,0.0875,0.695,0.25
17.7,0.144390243902439,0.19458819908178326,0.144390243902439,1.0,0.0525,0.14,0.0675,1.0,0.0575,0.0425,0.05,0.145,0.0425,0.065,0.1525,0.035,0.045,0.08,0.27,0.0575,0.0575,0.1975,0.0525,0.135,0.0675,0.0525,0.0725,0.075,0.03,0.06,0.3475,0.0425,0.04,0.06,0.1475,0.065,0.1,0.05,0.0825,0.1325,0.6275,0.1025,0.0525,0.0525,0.14,0.085,0.6975,0.2525
17.8,0.14439024390243904,0.19465869167926195,0.14439024390243904,1.0,0.0525,0.14,0.0675,1.0,0.06,0.045,0.0525,0.1475,0.0425,0.0625,0.155,0.0375,0.045,0.08,0.27,0.0575,0.0575,0.1975,0.0525,0.14,0.0675,0.0525,0.0725,0.0725,0.0325,0.06,0.35,0.0425,0.0375,0.0575,0.1425,0.0625,0.1,0.05,0.0825,0.13,0.6275,0.1,0.055,0.0475,0.1375,0.0875,0.6975,0.2525
17.9,0.1435365853658537,0.19357592542827592,0.1435365853658537,0.995,0.0525,0.14,0.0675,0.995,0.06,0.0475,0.0525,0.15,0.04,0.0625,0.155,0.0425,0.045,0.0775,0.2675,0.055,0.055,0.195,0.0525,0.14,0.0675,0.0525,0.0725,0.0725,0.0325,0.0575,0.3425,0.0425,0.0375,0.0575,0.14,0.0625,0.0975,0.05,0.085,0.1275,0.625,0.0975,0.0575,0.045,0.1375,0.0875,0.695,0.25
18.0,0.14475609756097563,0.19322819575194367,0.14475609756097563,1.0,0.0525,0.1375,0.07,1.0,0.06,0.05,0.0575,0.155,0.04,0.06,0.1525,0.0525,0.0475,0.08,0.2725,0.0525,0.0525,0.2,0.055,0.1425,0.0675,0.055,0.07,0.0725,0.04,0.0575,0.3475,0.045,0.0375,0.0575,0.1325,0.0725,0.1025,0.0525,0.09,0.1275,0.6175,0.095,0.055,0.0425,0.1375,0.09,0.6925,0.2475
18.1,0.1448170731707317,0.1930794969631194,0.1448170731707317,1.0,0.0525,0.135,0.07,1.0,0.06,0.055,0.0575,0.155,0.04,0.065,0.1475,0.0525,0.0475,0.0825,0.2775,0.0575,0.0525,0.2,0.0525,0.145,0.065,0.05,0.07,0.07,0.0425,0.055,0.35,0.045,0.0375,0.06,0.13,0.07,0.1,0.05,0.0975,0.13,0.615,0.0925,0.055,0.045,0.135,0.09,0.6925,0.2425
18.2,0.1454268292682927,0.19316514989471803,0.1454268292682927,0.9975,0.0525,0.1375,0.0675,0.9975,0.0575,0.06,0.06,0.1575,0.0375,0.0675,0.1475,0.055,0.0475,0.08,0.2775,0.0575,0.0525,0.2025,0.0525,0.145,0.06,0.05,0.07,0.0725,0.0425,0.0575,0.35,0.0475,0.04,0.06,0.1325,0.0675,0.1,0.0525,0.1025,0.13,0.6175,0.0925,0.0525,0.045,0.1375,0.09,0.6975,0.24
18.3,0.14518292682926828,0.19373919343891288,0.14518292682926828,1.0,0.0525,0.135,0.0675,1.0,0.06,0.06,0.06,0.16,0.04,0.07,0.1475,0.0525,0.0475,0.08,0.2775,0.06,0.0525,0.2075,0.0575,0.145,0.0575,0.0475,0.0675,0.0725,0.045,0.0525,0.3475,0.05,0.04,0.0575,0.135,0.06,0.09,0.055,0.095,0.13,0.62,0.0925,0.05,0.045,0.135,0.09,0.6975,0.2425
18.4,0.14426829268292682,0.19386650226886312,0.14426829268292682,1.0,0.055,0.1325,0.0675,1.0,0.06,0.06,0.06,0.1575,0.0425,0.07,0.145,0.0525,0.045,0.0775,0.275,0.0575,0.0525,0.21,0.0575,0.1375,0.055,0.045,0.0675,0.0725,0.0475,0.0475,0.3425,0.05,0.0425,0.0575,0.13,0.0625,0.085,0.055,0.09,0.1275,0.62,0.0925,0.055,0.045,0.1325,0.09,0.7,0.2425
18.5,0.1431707317073171,0.19310131328436775,0.1431707317073171,0.9925,0.0525,0.1325,0.07,0.9925,0.06,0.0525,0.0625,0.15,0.0425,0.07,0.145,0.05,0.0475,0.08,0.275,0.06,0.055,0.21,0.0525,0.1325,0.0525,0.0425,0.07,0.0725,0.0475,0.045,0.34,0.05,0.04,0.0525,0.1275,0.06,0.085,0.0525,0.0875,0.1275,0.62,0.0925,0.055,0.045,0.1325,0.0925,0.6975,0.245
18.6,0.14371951219512197,0.19364139123586682,0.14371951219512197,1.0,0.0525,0.1325,0.0675,1.0,0.0575,0.0575,0.0625,0.155,0.0425,0.0725,0.1475,0.0525,0.05,0.08,0.275,0.0625,0.0525,0.215,0.055,0.1375,0.0525,0.0425,0.0675,0.0725,0.05,0.0375,0.34,0.05,0.035,0.0525,0.13,0.065,0.0875,0.05,0.0875,0.1275,0.6175,0.09,0.0575,0.0425,0.1325,0.09,0.695,0.245
18.7,0.1427439024390244,0.19330470455807114,0.1427439024390244,1.0,0.0525,0.1325,0.07,1.0,0.055,0.0575,0.0575,0.155,0.0425,0.075,0.145,0.0525,0.05,0.0825,0.275,0.0625,0.0525,0.2125,0.055,0.1325,0.0525,0.0425,0.065,0.0725,0.05,0.035,0.3325,0.0475,0.035,0.0525,0.1325,0.07,0.08,0.0475,0.09,0.1275,0.6125,0.0875,0.0575,0.04,0.1325,0.09,0.695,0.2425
18.8,0.14182926829268294,0.19350822790082664,0.14182926829268294,1.0,0.05,0.1325,0.0675,1.0,0.055,0.0575,0.055,0.155,0.0425,0.0775,0.145,0.05,0.05,0.0825,0.27,0.0575,0.0525,0.215,0.055,0.1275,0.0525,0.0425,0.065,0.0725,0.05,0.0325,0.335,0.0475,0.035,0.0475,0.1325,0.0675,0.08,0.0475,0.09,0.13,0.6125,0.08,0.0575,0.0375,0.1325,0.09,0.695,0.235
18.9,0.1420121951219512,0.1938979329128198,0.1420121951219512,1.0,0.0525,0.1325,0.0675,1.0,0.055,0.055,0.0525,0.1525,0.04,0.0775,0.15,0.0525,0.05,0.0825,0.2675,0.055,0.0525,0.2175,0.0525,0.1275,0.0575,0.0425,0.065,0.0725,0.0475,0.0325,0.3375,0.0475,0.035,0.0475,0.135,0.0675,0.0825,0.045,0.0925,0.1325,0.6175,0.08,0.0575,0.0375,0.1325,0.09,0.695,0.2325
19.0,0.1415853658536585,0.1940107459444948,0.1415853658536585,1.0,0.05,0.1325,0.07,1.0,0.05,0.055,0.0525,0.15,0.04,0.075,0.15,0.0525,0.05,0.085,0.2675,0.0575,0.055,0.215,0.055,0.12,0.0575,0.04,0.065,0.0725,0.0475,0.03,0.3325,0.0475,0.0325,0.045,0.135,0.07,0.085,0.045,0.085,0.1325,0.6175,0.0825,0.055,0.0375,0.1325,0.09,0.695,0.2425
19.1,0.14091463414634148,0.19337562658353163,0.14091463414634148,0.9975,0.05,0.13,0.0675,0.9975,0.05,0.05,0.05,0.1475,0.04,0.0725,0.1475,0.0525,0.05,0.085,0.265,0.0575,0.055,0.22,0.0575,0.1225,0.055,0.04,0.065,0.0725,0.045,0.0325,0.3325,0.0475,0.035,0.045,0.1425,0.0675,0.085,0.045,0.0825,0.1275,0.6125,0.08,0.0575,0.035,0.13,0.09,0.6925,0.24
19.2,0.1404268292682927,0.19400850374169892,0.1404268292682927,1.0,0.05,0.13,0.0675,1.0,0.05,0.045,0.0475,0.1425,0.04,0.0725,0.145,0.0525,0.05,0.0825,0.255,0.05,0.055,0.2225,0.0575,0.115,0.055,0.04,0.0675,0.07,0.045,0.0375,0.3375,0.0425,0.0325,0.04,0.145,0.0675,0.0825,0.055,0.085,0.1275,0.6125,0.0825,0.0575,0.035,0.13,0.09,0.695,0.2425
19.3,0.13920731707317074,0.19344788721620013,0.13920731707317074,0.9975,0.0475,0.13,0.0675,0.9975,0.05,0.0425,0.05,0.1375,0.0375,0.0675,0.1425,0.0475,0.0475,0.08,0.255,0.05,0.0525,0.225,0.0575,0.1125,0.055,0.04,0.0675,0.07,0.045,0.0375,0.3425,0.04,0.0325,0.04,0.1425,0.065,0.0825,0.055,0.0825,0.125,0.6075,0.0825,0.06,0.035,0.13,0.09,0.69,0.2375
19.4,0.13914634146341462,0.19376611636833915,0.13914634146341462,1.0,0.0475,0.13,0.0675,1.0,0.0525,0.045,0.05,0.1425,0.0375,0.0675,0.1475,0.0475,0.0475,0.08,0.2575,0.05,0.0475,0.2175,0.0575,0.1125,0.055,0.0375,0.0675,0.07,0.04,0.035,0.335,0.0425,0.03,0.0425,0.145,0.07,0.08,0.0525,0.0825,0.125,0.61,0.0825,0.0625,0.0375,0.13,0.09,0.6925,0.23
19.5,0.13987804878048785,0.1936853363529206,0.13987804878048785,0.9975,0.0475,0.13,0.0675,0.9975,0.055,0.05,0.0475,0.15,0.0375,0.0675,0.1475,0.0475,0.0475,0.0825,0.2625,0.05,0.0475,0.2125,0.06,0.11,0.055,0.0375,0.07,0.07,0.0375,0.04,0.3325,0.045,0.03,0.05,0.1425,0.0675,0.0825,0.055,0.08,0.13,0.615,0.08,0.0575,0.0425,0.13,0.0875,0.695,0.23
19.6,0.13987804878048782,0.1942943385843984,0.13987804878048782,1.0,0.0475,0.13,0.0675,1.0,0.055,0.05,0.045,0.1475,0.04,0.0675,0.1475,0.05,0.045,0.08,0.26,0.0475,0.0475,0.215,0.06,0.1075,0.055,0.0375,0.0675,0.07,0.0375,0.04,0.335,0.045,0.0275,0.0525,0.145,0.07,0.0825,0.055,0.0825,0.1275,0.6125,0.08,0.0575,0.0425,0.13,0.085,0.7,0.2325
19.7,0.13987804878048782,0.1936640849791899,0.13987804878048782,0.9975,0.0475,0.13,0.0675,0.9975,0.055,0.05,0.0475,0.1525,0.0375,0.0675,0.1475,0.0525,0.0475,0.0825,0.26,0.045,0.0525,0.2075,0.0575,0.1075,0.055,0.0375,0.0675,0.07,0.04,0.04,0.33,0.045,0.0275,0.0475,0.1475,0.08,0.0825,0.05,0.0775,0.1275,0.61,0.0825,0.055,0.045,0.13,0.085,0.7,0.235
19.8,0.14201219512195123,0.19285500960391924,0.14201219512195123,1.0,0.05,0.1325,0.07,1.0,0.055,0.0525,0.0475,0.1525,0.04,0.0725,0.1475,0.0575,0.05,0.09,0.2725,0.0475,0.055,0.21,0.0575,0.115,0.055,0.0375,0.0675,0.07,0.0375,0.05,0.33,0.045,0.0325,0.05,0.1475,0.0875,0.085,0.0525,0.085,0.125,0.6075,0.0825,0.055,0.045,0.1325,0.0875,0.6925,0.24
19.9,0.1428658536585366,0.19309226356501574,0.1428658536585366,1.0,0.05,0.1375,0.07,1.0,0.0575,0.05,0.0475,0.1525,0.04,0.075,0.15,0.0525,0.05,0.09,0.2725,0.0475,0.0575,0.215,0.0575,0.1175,0.055,0.0425,0.0675,0.07,0.04,0.0525,0.33,0.045,0.035,0.05,0.1475,0.0825,0.0825,0.0525,0.0925,0.125,0.61,0.0825,0.055,0.045,0.1375,0.0875,0.695,0.2425
